Accessed on Fri Oct 14 2016 15:58:51 GMT-0700 (PDT)
 
×

1791 Owners Of Gracious
All collectors with one or more of these.
COLLECTOR	TRADER
GRADE	# OWNED	
"ORIENTAL ERA-WOMEN'S BEAUTY"
COMPLETION
 Rita Carpinha	A+	6×	9/13	  GET
 Jose Vazquez	A+	12×	11/13	  GET
 Joe Worthington	B	5×	11/13	  GET
 Joed3d4d6	C-	2×	9/13	  GET
 Izello	D	2×	5/13	  GET
 Renegade Fruitloop	A+	6×	12/13	  GET
 Veronicafalls	A+	4×	12/13	  GET
 Rick Cook	A+	4×	8/13	  GET
 D W	A	3×	9/13	  GET
 Krisztina Kurucsai	A+	9×	13/13	  GET
 Da Ne	A	13×	12/13	  GET
 David Hoogland	A+	10×	13/13	  GET
 Kikilala	C	3×	10/13	  GET
 Rosalyn	C-	4×	8/13	  GET
 Claire	B	7×	9/13	  GET
 Child's Heart	A+	11×	13/13	  GET
 Waldo Cervantes	A+	8×	13/13	  GET
 Maousama	A+	2×	5/13	  GET
 Webles87	A+	16×	12/13	  GET
 Tjdisco	A+	11×	13/13	  GET
 Frank Tybush	B-	2×	4/13	  GET
 Flux1991	C+	3×	11/13	  GET
 Emory Cash	B	3×	12/13	  GET
 Jeddediah	A+	13×	12/13	  GET
 cheerful	A-	5×	9/13	  GET
 Bryan Holland Arts	A+	6×	11/13	  GET
 Hareion	A+	3×	9/13	  GET
 David Goldstein	A+	7×	11/13	  GET
 Boffadeez	A+	12×	13/13	  GET
 Hxchip	A+	6×	11/13	  GET
 Dave Leach	A+	5×	11/13	  GET
 NamTec	C+	2×	5/13	  GET
 Thorin Kafka	A	2×	5/13	  GET
 Elizabeth Leong	A+	16×	13/13	  GET
 Yoli Chapa	A	4×	9/13	  GET
 Darthheisenberg	D-	6×	11/13	  GET
 Keisiak	A	8×	11/13	  GET
 Azwarrior	A	2×	8/13	  GET
 Loveydovey	A	2×	9/13	  GET
 Breezy Lou	A+	2×	10/13	  GET
 Gesyca	A+	12×	12/13	  GET
 Mouseblast	A+	21×	13/13	  GET
 Aba Kashi	A-	2×	6/13	  GET
 Bluelink	A+	8×	10/13	  GET
 Robbsterklaw	A+	5×	11/13	  GET
 Prinnyhero	A-	14×	10/13	  GET
 N3W7	A-	5×	12/13	  GET
 Mcsquiggins	A+	2×	13/13	  GET
 Cory W.	C+	5×	13/13	  GET
 Dung Mücke	A+	8×	11/13	  GET
 Sophie Degroote	A	3×	12/13	  GET
 Dániel	A+	3×	10/13	  GET
 Hana Cooper	A+	5×	9/13	  GET
 Nkonye Campbell	A+	6×	11/13	  GET
 Nico Scheurer	C	2×	6/13	  GET
 Pkboo	A+	7×	11/13	  GET
 Gabriel Mestrallet	A+	3×	6/13	  GET
 Shannon Merp	A-	3×	10/13	  GET
 Aaron Baker	A+	3×	10/13	  GET
 Fruity Loopz	B	4×	8/13	  GET
 Amanda Petzak	A+	5×	11/13	  GET
 A_tanouye	A+	3×	10/13	  GET
 Krystol Ruiz	A+	2×	7/13	  GET
 Taryn Hecker	A+	3×	11/13	  GET
 CL	B+	3×	10/13	  GET
 Ilse.aime	A	10×	12/13	  GET
 nrg777	A+	9×	9/13	  GET
 Tony Montgomery	A+	3×	8/13	  GET
 TNT Tiger	A+	13×	13/13	  GET
 Alyssa Iris	A+	10×	11/13	  GET
 Great Ninja	A+	7×	13/13	  GET
 Heleye	A+	4×	9/13	  GET
 Partcloud	A+	5×	9/13	  GET
 Firstiand Chaniago	A+	22×	12/13	  GET
 Zsomba	A+	3×	8/13	  GET
 Natasha Peck	A+	4×	10/13	  GET
 Deanrharmon	A	8×	9/13	  GET
 Elise Huston	D+	2×	9/13	  GET
 Neonmobster_11625	A+	8×	12/13	  GET
 Wonderinglolita	A+	6×	13/13	  GET
 Josh Hinds	A+	11×	12/13	  GET
 Phil	A+	21×	12/13	  GET
 Ryan McCarthy	A+	9×	13/13	  GET
 Victor Scrooge	A+	2×	9/13	  GET
 Iancastle172	C+	7×	11/13	  GET
 Erik Derr	A+	8×	13/13	  GET
 Jessica Kuykendall	B+	2×	7/13	  GET
 Asyouwish	B-	4×	10/13	  GET
 AJ Esquin	D-	11×	10/13	  GET
 Little Elfche	A+	4×	13/13	  GET
 Ian Donahue	B+	3×	10/13	  GET
 Samantha Johnson	C-	4×	10/13	  GET
 Benedetta Scardina	A+	4×	9/13	  GET
 Barb Ngai	A+	3×	11/13	  GET
 Breeze Canyon	B	4×	10/13	  GET
 Levi Snowdon	A	2×	9/13	  GET
 Foresakenfaerie	A	6×	9/13	  GET
 IA	A+	3×	9/13	  GET
 Mike Logaz	A+	2×	10/13	  GET
 Setiadi Tjin	A	17×	13/13	  GET
 Gil Reyes Mtz	A-	6×	11/13	  GET
 Kellie R	A+	3×	5/13	  GET
 FrostThePsycho	A+	2×	11/13	  GET
 Karma Twelve	B	2×	7/13	  GET
 David Shingles	A+	9×	11/13	  GET
 Ben Kalman	A+	2×	10/13	  GET
 Minnie Spark	C	3×	8/13	  GET
 Gogs	A+	8×	12/13	  GET
 Manda R	B	2×	4/13	  GET
 Alfonso Díaz	A+	2×	10/13	  GET
 Onig Apaz	A+	7×	12/13	  GET
 Pedro França	A+	6×	9/13	  GET
 Angel B	A+	4×	9/13	  GET
 Michelle Lausen	A+	5×	10/13	  GET
 Roxygirlx	A	11×	11/13	  GET
 Kiq005	B-	4×	11/13	  GET
 Neonmobster_19200	A+	4×	7/13	  GET
 Sébastien D.	A+	19×	13/13	  GET
 Ezzerhoden	A+	11×	11/13	  GET
 Alvasaur {PM FOR TRADE}	A+	3×	9/13	  GET
 Katie Wyman	B+	2×	9/13	  GET
 Hane Renard	A+	11×	13/13	  GET
 Pamela Wantstheoldneonmobback	B	2×	10/13	  GET
 Marie.lool	A+	9×	11/13	  GET
 Daniela Toyou	C+	2×	4/13	  GET
 Neonmobster_19806	B	2×	7/13	  GET
 Sølvi Husby	A+	6×	13/13	  GET
 Melanie Worrall	A+	13×	11/13	  GET
 Kang205175	B+	8×	10/13	  GET
 Renata Sayuri	A+	20×	11/13	  GET
 Sid Maxwell	A+	32×	13/13	  GET
 TacoHunter	B+	5×	10/13	  GET
 Adorahaa	A+	5×	10/13	  GET
 Loffel	A+	20×	13/13	  GET
 Scarecrowluk	B+	2×	10/13	  GET
 Cheszali Erestain	A+	6×	12/13	  GET
 Elizabeth Kidder	A+	5×	9/13	  GET
 Sare Sai	A+	3×	11/13	  GET
 Dracken	A+	2×	11/13	  GET
 Brent Brandenburg	A+	2×	8/13	  GET
 batiskafo	A+	10×	12/13	  GET
 Mobboss	B+	3×	10/13	  GET
 Henry Foree	A+	3×	9/13	  GET
 Tony Bolony	A+	2×	13/13	  GET
 Greenfaery	A+	5×	12/13	  GET
 Cboy0512	C-	5×	12/13	  GET
 Normacrow	D+	2×	10/13	  GET
 Anonymous User	A+	2×	11/13	  GET
 Jamey Shelby	A+	4×	11/13	  GET
 Kaii	A+	7×	11/13	  GET
 Su L	A	2×	8/13	  GET
 Virginia "Magnolia" Pratcher and the MissOldNeonmob Hallows	A+	2×	10/13	  GET
 Ivett Jimenez	B	2×	10/13	  GET
 Jessica Seargeant	A+	8×	13/13	  GET
 David Poulton	A+	8×	13/13	  GET
 Tristan Wilke	A	3×	11/13	  GET
 Strzy	A-	3×	6/13	  GET
 Neonmobster_19671	B	2×	7/13	  GET
 Zxion02	A	8×	11/13	  GET
 Ren Son	A+	3×	10/13	  GET
 Alessandro Negretti	A+	2×	7/13	  GET
 Capt_Lion	A+	11×	13/13	  GET
 Manda Schumacher	A-	6×	9/13	  GET
 Cyrus Malkin	A+	3×	9/13	  GET
 Fernando Henrique	A+	4×	10/13	  GET
 Terrasa Ulm	B-	7×	9/13	  GET
 Rachilli	A+	6×	11/13	  GET
 Kiran Khan	A+	21×	13/13	  GET
 Symonyan Razornyan	A+	3×	9/13	  GET
 R K	C+	3×	9/13	  GET
 Zac Kenny	A+	7×	8/13	  GET
 Victoria Cookie Tolentino	D-	4×	8/13	  GET
 Mystic Snail	A+	14×	13/13	  GET
 Alejandro Serrano	A+	3×	13/13	  GET
 Jana	A+	3×	11/13	  GET
 Adam Tanouye	A+	10×	13/13	  GET
 Lisette Tolxdorf	A+	11×	12/13	  GET
 João Melo	B	3×	4/13	  GET
 Maureen-jay Balanay	A+	7×	11/13	  GET
 Tu Truong	A+	2×	8/13	  GET
 Firez Cisneros Alvarado	A+	5×	9/13	  GET
 Acid	A+	4×	10/13	  GET
 Juan Rodriguez	C+	4×	10/13	  GET
 James O'Leary	A+	3×	10/13	  GET
 Michel Ehrlich	A+	33×	13/13	  GET
 Alison Wendy	A+	21×	13/13	  GET
 Neonmobster_13381	B-	3×	9/13	  GET
 Life is a Lie	C	2×	6/13	  GET
 Neonmobster_14644 Fiorella	A+	3×	9/13	  GET
 Julie Sampson	A	2×	9/13	  GET
 Wasabee	A+	7×	13/13	  GET
 Peter Santha	A+	16×	11/13	  GET
 Jugo	A	5×	10/13	  GET
 Aline Schulz Realino Lima	B+	5×	12/13	  GET
 gagy19	C+	8×	11/13	  GET
 Jon Greene	A+	21×	13/13	  GET
 Patrick Smith	C	2×	5/13	  GET
 Keely Rivers	B+	4×	12/13	  GET
 Cryptec	A	5×	13/13	  GET
 Ajna Onhumies	A-	2×	12/13	  GET
 Aldrenaline	A	10×	10/13	  GET
 Trevor Lunney	A+	2×	4/13	  GET
 Claire Howard	B	2×	7/13	  GET
 nowheresafe	A+	9×	10/13	  GET
 Kristina Meloserdoff	A+	2×	6/13	  GET
 Nick Cipolla	A+	14×	13/13	  GET
 Helen Velich	A+	12×	11/13	  GET
 Ace Rocker	A+	4×	11/13	  GET
 DemonsWrath	A+	4×	11/13	  GET
 Aislinn Woodward	A	3×	11/13	  GET
 Genista	B	3×	8/13	  GET
 Yasin Günenç	A+	6×	11/13	  GET
 Icecheetah	A+	32×	13/13	  GET
 Max Dusman	A+	12×	13/13	  GET
 Bluebanana	A+	26×	11/13	  GET
 Zach Alexander	A+	4×	9/13	  GET
 Johannah Navallo	A+	4×	11/13	  GET
 Jessi Young	C-	3×	5/13	  GET
 Robby Miller	A+	2×	10/13	  GET
 George Y. Lee	A+	7×	11/13	  GET
 Sean Eric	A+	6×	10/13	  GET
 Beanbear24	A	4×	13/13	  GET
 Jesse Goll	A+	3×	13/13	  GET
 KeithB	A+	18×	12/13	  GET
 Cian's Trading Emporium	D-	2×	7/13	  GET
 Bram Verhagen	A+	5×	10/13	  GET
 Mcnabbi	A+	2×	8/13	  GET
 Butternutloaf	A+	7×	12/13	  GET
 Kiyoshi Taqi	C-	2×	3/13	  GET
 Fanfare	B	9×	12/13	  GET
 Shmoo92	A-	3×	9/13	  GET
 Hakaru Muromachi	A+	9×	11/13	  GET
 Ivano Latuconsina	A+	2×	9/13	  GET
 Bryan Paterson	A+	8×	13/13	  GET
 Marco Sousa	B	3×	10/13	  GET
 Redpanda109	A+	3×	9/13	  GET
 Gdiii	B+	7×	11/13	  GET
 Kowaiixia	B+	2×	7/13	  GET
 Proxy7	A+	4×	9/13	  GET
 Neonmobster_7917	A+	10×	9/13	  GET
 Vian	A+	3×	9/13	  GET
 Ben Klein	B	6×	11/13	  GET
 Eli French	B+	2×	7/13	  GET
 Bluehawaii	A+	7×	13/13	  GET
 Ed Stych	A+	3×	11/13	  GET
 Michael H	A+	9×	13/13	  GET
 James McLeod	A+	9×	12/13	  GET
 James Cats	A	4×	11/13	  GET
 Kristen Garrett	A+	5×	12/13	  GET
 Johnny Quest	A+	4×	9/13	  GET
 Lucidtortoise	A+	2×	9/13	  GET
 Stephanie Collins	D	2×	5/13	  GET
 Lilyat221b	A-	8×	10/13	  GET
 Nytunia	A+	2×	12/13	  GET
 Bocalinda	B	2×	6/13	  GET
 Jocelyn Wilson	A+	9×	12/13	  GET
 Magda Dams	B-	3×	8/13	  GET
 Jon D	A+	9×	12/13	  GET
 Kyla Ifurung	B-	2×	10/13	  GET
 Chie	A	10×	13/13	  GET
 Macklmore	A+	2×	9/13	  GET
 Elyse B	A+	3×	13/13	  GET
 Ross	F+	3×	8/13	  GET
 James Miller	A+	5×	9/13	  GET
 J K	A+	15×	12/13	  GET
 David Jimenez	B	2×	11/13	  GET
 Cee Cee	B+	6×	8/13	  GET
 Katrina Rowley	A+	17×	11/13	  GET
 Irenes	B-	4×	9/13	  GET
 Cat Anno	A+	4×	9/13	  GET
 Jewlz Robertson	A+	4×	13/13	  GET
 juju 98	A	2×	11/13	  GET
 Lillian F.	A+	2×	10/13	  GET
 Damon Boothby	A+	3×	7/13	  GET
 Cynthia	A-	7×	11/13	  GET
 Gillomee	C	2×	10/13	  GET
 Milena Romaniuk	A+	6×	13/13	  GET
 Komasan	A	7×	9/13	  GET
 Neonmobster_19793	B	2×	4/13	  GET
 yamaJYT	A+	5×	13/13	  GET
 Darryl	A-	3×	10/13	  GET
 Art Star	A+	2×	10/13	  GET
 Cristina García Herrero	D-	3×	8/13	  GET
 Neonmobster_811	A+	11×	11/13	  GET
 Nick Barrett	A+	30×	13/13	  GET
 Bmae.roop1	B	2×	7/13	  GET
 Sam Smith	A+	2×	10/13	  GET
 Davidhj.net	B	9×	12/13	  GET
 NordicTurtle	A+	6×	13/13	  GET
 Christel PK	A+	5×	9/13	  GET
 Venessa Chan	C+	4×	8/13	  GET
 Heidi Nephin	A+	4×	9/13	  GET
 Sana	A+	8×	13/13	  GET
 Z P	A	2×	1/13	  GET
 Kits Knight	A+	5×	10/13	  GET
 Nillo Akizo	A	9×	10/13	  GET
 RuyGDA	A+	9×	13/13	  GET
 Katie	A+	5×	10/13	  GET
 Jan Co	B+	4×	8/13	  GET
 Paradox	B+	5×	10/13	  GET
 Myko Viernes	A+	4×	9/13	  GET
 Karen Mack	A+	15×	13/13	  GET
 Tielk	B+	2×	11/13	  GET
 Jay McAlpine	A+	2×	6/13	  GET
 JB1127	A+	19×	13/13	  GET
 Joseph	A+	3×	10/13	  GET
 Luraae	A+	6×	11/13	  GET
 Rachel Andrews	A+	2×	11/13	  GET
 Ardy Bondoc	A+	10×	13/13	  GET
 Ryan Joshi	B+	13×	12/13	  GET
 Chris Held	A+	17×	12/13	  GET
 Lola Heart	C	2×	6/13	  GET
 AnazenArt	A+	29×	13/13	  GET
 SeriousKitty	B+	10×	10/13	  GET
 Emma	A+	3×	9/13	  GET
 Joshua Blackstone	A+	13×	13/13	  GET
 Souls Haven	A+	6×	13/13	  GET
 KyloRenKnight	A+	12×	13/13	  GET
 poison kittie	B-	2×	8/13	  GET
 Fabled3000	A+	12×	13/13	  GET
 shiny beast of thought	A+	7×	12/13	  GET
 Jessica Gaytan	A+	18×	11/13	  GET
 Geekchic77	B	4×	8/13	  GET
 joshua wilson	A-	2×	9/13	  GET
 Arthur.cuellar99	A	6×	9/13	  GET
 Zach Hatch	A+	2×	4/13	  GET
 Christina	A	2×	9/13	  GET
 Janterra	D+	2×	9/13	  GET
 Crimson	A	2×	10/13	  GET
 Chris Dlr	A+	5×	9/13	  GET
 Betsy Hodge	B	2×	7/13	  GET
 Luckiistyle	A	14×	9/13	  GET
 Enchant04	A+	11×	11/13	  GET
 wild_tardis	A+	2×	5/13	  GET
 Shandee+Christopher Nis	A+	6×	13/13	  GET
 Devon Borema	A-	2×	9/13	  GET
 Shelby Night	A+	26×	12/13	  GET
 Jwhite810	A+	4×	10/13	  GET
 Stereo	A	2×	11/13	  GET
 Bi-Rabittoh	C	5×	12/13	  GET
 Raissa Andrade	B+	4×	13/13	  GET
 snoot	A+	6×	12/13	  GET
 Sailboat	C	2×	8/13	  GET
 Podd	F	2×	9/13	  GET
 Regina Lopez	A+	3×	11/13	  GET
 Franco Hormazabal Labbe	B-	15×	13/13	  GET
 Adam Sheffer	A+	5×	13/13	  GET
 Hasan.jawad1	A+	19×	12/13	  GET
 Ryder	A	8×	12/13	  GET
 Espiritudragonae	A-	3×	8/13	  GET
 Libra R	B	8×	11/13	  GET
 husahusa	A+	11×	10/13	  GET
 Matthew	A+	3×	10/13	  GET
 Talya Brown	A+	6×	11/13	  GET
 Albertoquinonez	A+	2×	10/13	  GET
 Carrie Myers	A	4×	9/13	  GET
 Jarrett Rhodes	A+	3×	9/13	  GET
 Ideota	A+	3×	10/13	  GET
 Rhodora Junsan	B+	2×	8/13	  GET
 Adriane Lance Jarred Adlawan	A-	12×	10/13	  GET
 Ryan Davis	A+	6×	13/13	  GET
 Annelise Knoot	A+	14×	12/13	  GET
 Apple	A-	5×	10/13	  GET
 Meo_429	A+	6×	10/13	  GET
 Byron Lim	A+	4×	8/13	  GET
 Jonathan James	C	2×	2/13	  GET
 Nico Hart	A	8×	11/13	  GET
 Rosemary Foley	A+	11×	13/13	  GET
 Tien Lam	A+	4×	12/13	  GET
 Cynthia Lam	C-	2×	9/13	  GET
 Hanie Cherng	A	2×	10/13	  GET
 Ohlookapanda	A+	4×	8/13	  GET
 Chobits XD	B+	6×	11/13	  GET
 Corramel	A+	12×	13/13	  GET
 Shawna Aponte	A+	5×	13/13	  GET
 Veronica Bohrer	A+	2×	9/13	  GET
 Katie	A+	7×	11/13	  GET
 Dtherealk	B	2×	10/13	  GET
 Jtthellama	A+	8×	11/13	  GET
 Valeria Cavallari	B+	2×	9/13	  GET
 'Liung Hartono'	A+	6×	12/13	  GET
 Sometimeslove	A+	3×	9/13	  GET
 Abby Fox	B+	3×	11/13	  GET
 Blackroses	A-	8×	12/13	  GET
 RedLevi	A-	8×	11/13	  GET
 Patricia Sung	A+	6×	12/13	  GET
 Julia Notkina	A	10×	13/13	  GET
 Battlekingomegaman	A+	2×	11/13	  GET
 Kelvin Tse	A+	7×	13/13	  GET
 Darth Doom	A+	6×	12/13	  GET
 Mawar Putri	C+	15×	13/13	  GET
 Richard Grillotti	A	15×	11/13	  GET
 Ahreen Kaye Valenzuela	A+	8×	13/13	  GET
 Care Halverson	A	5×	9/13	  GET
 Apollyon2318	A+	3×	8/13	  GET
 Danilo Perin	A	13×	12/13	  GET
 Kaylee the Whimsical	A+	8×	12/13	  GET
 Laila Pinto Alves	A+	6×	13/13	  GET
 Lucas Garcia	B	3×	10/13	  GET
 Jaakpartel	A+	15×	11/13	  GET
 Tyler Anderson	A+	11×	12/13	  GET
 Diego Camara Lopes	A+	5×	13/13	  GET
 Neonmobster_14218	A+	3×	8/13	  GET
 Kenny Tan	A-	8×	13/13	  GET
 Seitzanthony	A+	6×	10/13	  GET
 Asonity	A+	5×	10/13	  GET
 Hosta	A	16×	11/13	  GET
 Ajax	A+	2×	8/13	  GET
 Jv1c3	A+	16×	11/13	  GET
 Winson Goh	A+	12×	12/13	  GET
 Good Man	A+	33×	12/13	  GET
 Geoffrey Reesor	A+	3×	9/13	  GET
 Ipocalypse	A+	8×	13/13	  GET
 Jaytheradioguy	A	4×	10/13	  GET
 Kekeico	A+	5×	10/13	  GET
 Kat Yuki	A+	5×	11/13	  GET
 Neonmobster_4428	A	4×	10/13	  GET
 Tonyhotmail	A+	5×	8/13	  GET
 David Chhuon	A+	5×	13/13	  GET
 River	A+	10×	11/13	  GET
 Ocular Rhombus	B+	2×	9/13	  GET
 Betafish	A+	4×	11/13	  GET
 Oliver Milton	A+	2×	9/13	  GET
 Monomi	A-	2×	10/13	  GET
 Kian Keller	B	3×	8/13	  GET
 Chelsie Burgess	B+	3×	9/13	  GET
 Cecilia Oñederra	A+	8×	11/13	  GET
 Lena	A+	21×	13/13	  GET
 Janetvonmurder	A+	17×	13/13	  GET
 Animeartist62	A+	7×	12/13	  GET
 Marianna Piacesi	A+	9×	13/13	  GET
 Ryanjacobs464	B+	7×	10/13	  GET
 Hey You're Cool	C+	2×	12/13	  GET
 Blakestapleton22	A+	3×	11/13	  GET
 BlueCat	A	3×	9/13	  GET
 Doolsgold	A+	5×	10/13	  GET
 de_sign00	A+	9×	9/13	  GET
 Lee Hylands	B+	8×	11/13	  GET
 Elizabeth Tapia	C+	2×	8/13	  GET
 D.lady	A+	9×	12/13	  GET
 Steven Rieck	C-	3×	6/13	  GET
 Vaelyx	A-	6×	13/13	  GET
 Jamie Sampson	A-	8×	9/13	  GET
 Nathsic	B-	17×	11/13	  GET
 Michael Jonathan	B-	4×	8/13	  GET
 Mark Jimenez	A+	4×	12/13	  GET
 Kevin Henke	A+	6×	13/13	  GET
 DJ Jones	A+	6×	10/13	  GET
 Comitem	A+	4×	10/13	  GET
 Agraynel	A+	11×	13/13	  GET
 Project	A+	9×	11/13	  GET
 SilentHeart	A+	3×	9/13	  GET
 Luci Kins	A-	24×	12/13	  GET
 Meredith Chamberlain	A+	19×	11/13	  GET
 SnowBear	A+	13×	13/13	  GET
 Artemis Cho	A	8×	11/13	  GET
 Demica Wood	B+	6×	10/13	  GET
 Patrickpjansen	B	2×	8/13	  GET
 Professorwilson	B	5×	10/13	  GET
 Neonmobster_18774	C	2×	5/13	  GET
 Marquaaaa	A+	3×	10/13	  GET
 Neonmobster_11554	C	3×	11/13	  GET
 Artfulizzy	B	2×	7/13	  GET
 Ciela Brown	C-	4×	10/13	  GET
 Tonylhamil	A+	4×	8/13	  GET
 Macarena Ayelén	A	5×	12/13	  GET
 Jerome	A	4×	9/13	  GET
 Rebecca Jackson	A+	3×	8/13	  GET
 Chaun Yamat	A+	2×	10/13	  GET
 Suttek	F	2×	7/13	  GET
 Aschlais88	C	2×	8/13	  GET
 Scarlettsiren	A+	7×	13/13	  GET
 Dinosaur Mermaid	A+	4×	11/13	  GET
 Johnathan Tsui	A+	10×	10/13	  GET
 Zypiris	A+	3×	11/13	  GET
 Kenth Leesha	A+	4×	11/13	  GET
 Alex.din	A+	3×	11/13	  GET
 Alberto Álvarez	C+	11×	11/13	  GET
 Lilith Wells	A+	13×	11/13	  GET
 Nas Vwj	D	10×	11/13	  GET
 Arianne Montecillo	B	9×	11/13	  GET
 Yoshikuni Kakeru	A+	11×	11/13	  GET
 Sara	A	2×	9/13	  GET
 Michael Harbin	A+	5×	11/13	  GET
 David	A	2×	11/13	  GET
 Chuck4489	A+	20×	13/13	  GET
 Arlain	A+	13×	13/13	  GET
 Candoh	B-	8×	13/13	  GET
 Kevin_zuners	A+	14×	13/13	  GET
 Kylieshepard	B-	3×	10/13	  GET
 Abigail Holloway	A+	4×	11/13	  GET
 Kiki Redfox	C-	2×	9/13	  GET
 Lauren Sugrue	A+	2×	11/13	  GET
 Kristina Wideman	A+	2×	11/13	  GET
 Scoutboy	A+	8×	11/13	  GET
 Pin_acc	B+	12×	12/13	  GET
 Darkmoon_dancer	A+	14×	12/13	  GET
 hching	B+	8×	13/13	  GET
 Francisco Quiroga	B	11×	11/13	  GET
 Kieran Gunn	A+	12×	13/13	  GET
 Sarah Murphy	A+	3×	7/13	  GET
 Jared Hale	A+	13×	13/13	  GET
 Tallytone	A+	6×	8/13	  GET
 Claudia	A	2×	9/13	  GET
 Becky	A+	12×	11/13	  GET
 Maria Coker	A-	22×	13/13	  GET
 Lyck_1021	C	4×	13/13	  GET
 Joe LoRe	A+	2×	9/13	  GET
 Empty_whale	A+	3×	10/13	  GET
 Daniel Aguayo	B+	11×	10/13	  GET
 Tonyhamilt88	A+	5×	10/13	  GET
 Ben	B	3×	10/13	  GET
 Cairan	A+	11×	13/13	  GET
 Alex	A+	9×	13/13	  GET
 Anneka Vasquez	B+	4×	11/13	  GET
 Alex Castañeda	A+	9×	10/13	  GET
 Jason Rawls	A+	5×	13/13	  GET
 Mrkr Trn	A+	10×	12/13	  GET
 Morgan Blount	A-	7×	9/13	  GET
 Rashae1996	A	4×	6/13	  GET
 Nekobread	C+	5×	10/13	  GET
 Milan Reno	A+	5×	10/13	  GET
 Jason Smith	A+	4×	10/13	  GET
 Kimberly Aumada	A+	9×	12/13	  GET
 Carter Townsend	A+	15×	12/13	  GET
 Shareece Tatum	A+	7×	12/13	  GET
 Vanillabliss	A+	20×	13/13	  GET
 Azuresimkin	A+	3×	13/13	  GET
 Fae	A+	5×	11/13	  GET
 Diana805	A	7×	11/13	  GET
 Simforianus Agustian	A+	4×	12/13	  GET
 Always_robby	A+	3×	8/13	  GET
 Neonmobster_19556	C+	2×	8/13	  GET
 Steve Gomez	A+	15×	12/13	  GET
 Butterfly 3ffect	C	2×	7/13	  GET
 Yezi	C-	8×	11/13	  GET
 Verne Ahyong	A+	8×	13/13	  GET
 Mclip8x8	F+	5×	10/13	  GET
 Barbara Laird	A+	5×	7/13	  GET
 Vsio NeithR	A+	2×	7/13	  GET
 Rag Doll's Revenge	A+	31×	12/13	  GET
 James Glover	B+	3×	8/13	  GET
 Alexis Young	A+	4×	11/13	  GET
 Abdulhamid	A	2×	9/13	  GET
 Tallyhamilton10	A	5×	9/13	  GET
 Rdg001	A+	4×	9/13	  GET
 C i d	B	2×	8/13	  GET
 Lukeg.22522	A-	3×	10/13	  GET
 Victor Vitiello Silva	A+	7×	12/13	  GET
 Kaitlyn Jewel	B+	3×	8/13	  GET
 Josiah DePaoli	A+	2×	13/13	  GET
 bai	A+	2×	6/13	  GET
 Lotus	B+	8×	9/13	  GET
 Druidpower0	A-	2×	6/13	  GET
 Gabriel Guimarães	B	7×	10/13	  GET
 Nora	A	8×	10/13	  GET
 Winter Rose	A+	12×	13/13	  GET
 Alef Alencar	A-	3×	9/13	  GET
 Isabella Montgomery	A-	3×	9/13	  GET
 Betsy Harper	C	2×	8/13	  GET
 Lost_cherryapple	A	2×	10/13	  GET
 Jessica McCollin	A+	6×	12/13	  GET
 Hamish Larkman	A+	3×	13/13	  GET
 Danny	A+	6×	8/13	  GET
 Nick Sampson	B-	3×	12/13	  GET
 Juanita Bonvillain	A+	2×	10/13	  GET
 Shayne De Dios	A	7×	13/13	  GET
 Gabriela Lopes	A+	20×	12/13	  GET
 Jeanythekitty	A+	9×	13/13	  GET
 Meg	C+	2×	9/13	  GET
 Brumalisprae	A+	27×	13/13	  GET
 Brittany Heisler	A	7×	11/13	  GET
 Scott Dyer	A+	12×	12/13	  GET
 Abel Martinez	B+	2×	8/13	  GET
 Haylee Moran	A-	2×	9/13	  GET
 Bob King	A+	3×	10/13	  GET
 Mas.amedda2016	C	2×	6/13	  GET
 DM Domini	A-	3×	11/13	  GET
 Coolstace Offical_stace	A+	3×	10/13	  GET
 Marc	A+	12×	11/13	  GET
 Jkliew	C+	6×	13/13	  GET
 K2T C.	C+	12×	13/13	  GET
 Ritz Altairis	A+	3×	8/13	  GET
 Drew Leto	A+	18×	13/13	  GET
 Lledoux99	B+	5×	12/13	  GET
 Zack Murphy	A+	9×	12/13	  GET
 Janegatsby	A+	4×	8/13	  GET
 Alice Liddell	A+	9×	11/13	  GET
 dai	B+	4×	9/13	  GET
 Dulce Castillo Guzman	B-	4×	8/13	  GET
 Lizzie~	B-	12×	13/13	  GET
 Christopher Wheeler	A+	7×	11/13	  GET
 Jordan	A+	15×	13/13	  GET
 C-Dog	A+	2×	7/13	  GET
 Zyanya de la Rosa	B	2×	9/13	  GET
 Janie Tolero	A+	2×	9/13	  GET
 Charles Atkinson	A+	7×	12/13	  GET
 Rue	A+	2×	9/13	  GET
 Jaime Peery	A+	2×	5/13	  GET
 Lilylove	B	3×	11/13	  GET
 Vortoxy	A	5×	10/13	  GET
 Dakarai Jones	C+	4×	9/13	  GET
 Aubreyanne26	C+	2×	6/13	  GET
 Devin	A+	24×	13/13	  GET
 Sean Burdick	A	12×	11/13	  GET
 Reallybored	A+	24×	13/13	  GET
 Tanya Hales	A+	9×	13/13	  GET
 Mariac	A	3×	12/13	  GET
 Kata	A+	2×	9/13	  GET
 Flanni Scarlet	A+	17×	13/13	  GET
 Arkhamhunter	C-	2×	3/13	  GET
 Redcarrobbie	A+	3×	11/13	  GET
 Shirlailai	A+	6×	11/13	  GET
 Ana Flávia Coetti	B-	5×	12/13	  GET
 Jade Jackson	A+	2×	8/13	  GET
 Logan Back	A+	3×	9/13	  GET
 Giuliana Capobianco	C+	4×	10/13	  GET
 Alex Kurai	B	5×	10/13	  GET
 Weilin Liao	A+	15×	11/13	  GET
 Barbara Morales	A+	23×	12/13	  GET
 Popshox	A+	8×	13/13	  GET
 Jean DaAroAce	A-	4×	9/13	  GET
 System	A+	3×	8/13	  GET
 Vhunters	A-	7×	10/13	  GET
 Lidia Martin	A+	5×	11/13	  GET
 Isaac Barbosa	D-	7×	9/13	  GET
 Henry	A	3×	10/13	  GET
 Mitchell	A+	8×	10/13	  GET
 Gerardo Lerma	B-	3×	8/13	  GET
 Filletfish	A+	18×	13/13	  GET
 bs angel	A+	5×	13/13	  GET
 Rian Perez	A+	10×	13/13	  GET
 ALT	C-	2×	9/13	  GET
 Dvel230892	A	4×	9/13	  GET
 hulotte	A	4×	13/13	  GET
 Gregu	A+	3×	11/13	  GET
 Threezus Ashford	B	3×	11/13	  GET
 Tiziana	B+	2×	9/13	  GET
 Randy Rodriguez	B	2×	12/13	  GET
 Tenxia PROTESTS NEONMOB CHANGES!!!!	A+	3×	13/13	  GET
 Natasha Chay	A+	14×	12/13	  GET
 Raveness Nicole	A-	2×	10/13	  GET
 Pao	A+	4×	10/13	  GET
 Timwallin5	B+	2×	9/13	  GET
 Asher Baker	B+	13×	11/13	  GET
 Adropofbeauty	A+	6×	10/13	  GET
 Rica Azmaria	A+	11×	12/13	  GET
 yiyang gu	D	10×	12/13	  GET
 Michael Mosher	A-	2×	9/13	  GET
 Suseq	A	3×	11/13	  GET
 pong0814	A+	2×	13/13	  GET
 Yasmin Brandt	A+	2×	8/13	  GET
 Rsquared300	A+	2×	11/13	  GET
 Лев Якушев	A+	2×	10/13	  GET
 Sue McCashland	A+	4×	9/13	  GET
 Screaming seduction	B-	2×	6/13	  GET
 Magda Velden	A+	3×	9/13	  GET
 Heather	A+	21×	12/13	  GET
 Alexander Clark	A+	2×	8/13	  GET
 Emily Belnap	A	13×	11/13	  GET
 Lauren Voorhees	A+	5×	10/13	  GET
 Ramon Cardoso	A+	23×	13/13	  GET
 Madalina Aldea	A+	3×	13/13	  GET
 Shea Donato	A+	6×	13/13	  GET
 Koyako	A+	6×	11/13	  GET
 Christopher Boyd	B+	4×	8/13	  GET
 Barney Shimp	A+	15×	11/13	  GET
 Rachael Mahaffey	A+	4×	9/13	  GET
 Sachiko	A+	4×	10/13	  GET
 Whitney	A+	2×	8/13	  GET
 Sgw	A	2×	9/13	  GET
 Raychapman	A+	6×	11/13	  GET
 Diana Garcia	A	5×	10/13	  GET
 Aythn Hood	A	7×	9/13	  GET
 Jennifer	A+	5×	10/13	  GET
 Mandi Arbizu	C+	3×	10/13	  GET
 Durfy	A	2×	9/13	  GET
 dedChar	A+	11×	12/13	  GET
 cdn_chickee	A-	11×	13/13	  GET
 Aili	A+	3×	10/13	  GET
 Aaron Zhao	C-	8×	10/13	  GET
 Jose Martinez	B+	11×	10/13	  GET
 Mihai Balan	A+	27×	13/13	  GET
 Magarthryx	A+	4×	10/13	  GET
 JDArePurple	A+	2×	9/13	  GET
 CthulhuSama	A	2×	4/13	  GET
 Dominique Williamson	A+	4×	9/13	  GET
 Sp1r1t_92	A+	4×	9/13	  GET
 Ktebee	A+	10×	12/13	  GET
 Larisse	A+	3×	9/13	  GET
 Ryan York	A-	4×	8/13	  GET
 bluecat	A+	5×	9/13	  GET
 Odd Child	A+	4×	9/13	  GET
 Cooper	A+	6×	11/13	  GET
 Ari	A+	5×	11/13	  GET
 Dragon Mist	A+	3×	13/13	  GET
 Failure Face	A+	10×	10/13	  GET
 Dawn O'Brien	A+	4×	12/13	  GET
 Ana	A+	14×	13/13	  GET
 jetsu ku	B+	2×	7/13	  GET
 Zosia Blizzard	B	6×	10/13	  GET
 Noe Alberto	A+	4×	8/13	  GET
 OfraJaws	A+	6×	11/13	  GET
 Jens Hviid	A+	6×	9/13	  GET
 Neonmobster_17008	A	4×	10/13	  GET
 Tabitha Amy Rose	A-	6×	10/13	  GET
 Payton Leeann	B+	4×	10/13	  GET
 Thiago Nadayoshi	B	2×	4/13	  GET
 Selena Stephenson	A+	6×	10/13	  GET
 Luciano Franceschi	A+	12×	13/13	  GET
 Teddy Pendergast	A+	6×	13/13	  GET
 Lizette Pretorius	B+	3×	10/13	  GET
 Colin McNeil	A-	2×	9/13	  GET
 Krellisin	B+	2×	6/13	  GET
 Navi	D+	18×	13/13	  GET
 Bubbie	B+	15×	12/13	  GET
 Sancho Pants	A+	5×	10/13	  GET
 Tami CM	A	4×	13/13	  GET
 Foxingrory	A+	4×	9/13	  GET
 xephia	B-	5×	8/13	  GET
 Josiah Rivera	A+	3×	7/13	  GET
 Darjeeling Iambritish	B-	3×	10/13	  GET
 Fiona Scott	A+	4×	12/13	  GET
 Mschromatic	A	3×	7/13	  GET
 gaboleiro1235	A+	3×	12/13	  GET
 Yi Tang	B+	4×	12/13	  GET
 Ray Ross	A+	2×	11/13	  GET
 Bargo Kaboot	A+	7×	10/13	  GET
 Drqb	A+	2×	10/13	  GET
 Kari Junco	A+	2×	9/13	  GET
 Ericka Smith	A+	6×	11/13	  GET
 Alex Bat	A+	2×	10/13	  GET
 Tally8hamil	A+	3×	9/13	  GET
 Kimclarkery	A+	3×	8/13	  GET
 Julia Pennings	A+	10×	11/13	  GET
 eva marie	A+	7×	12/13	  GET
 Nyang Hesatu	C+	6×	12/13	  GET
 James Goulart	A+	5×	10/13	  GET
 Lisa Lyle	A+	18×	13/13	  GET
 Maluavatar95	B-	3×	11/13	  GET
 Artisticcrystal12	F	2×	6/13	  GET
 Kate	A+	2×	10/13	  GET
 Marcio Barrios	A+	14×	13/13	  GET
 I10kz	C+	4×	9/13	  GET
 Neonmobster_18887	C+	3×	4/13	  GET
 Velotariat	A+	4×	11/13	  GET
 Tyler Bass	A+	6×	9/13	  GET
 Glenn Blanza	A+	6×	13/13	  GET
 Lucille Dailey	A+	7×	9/13	  GET
 Ohanwei	A+	7×	10/13	  GET
 Claudia Tinúviel	A+	4×	11/13	  GET
 Megan wants the old NeonMob back	A+	3×	13/13	  GET
 Brad Owings	F+	3×	7/13	  GET
 Shylittlerobin	A+	4×	8/13	  GET
 Ulossio	C-	4×	12/13	  GET
 Desdinova	A+	17×	13/13	  GET
 Istanyou	B+	23×	11/13	  GET
 Karla House Mcclain	A	19×	13/13	  GET
 Maetricks	D+	2×	8/13	  GET
 Whitney	A+	2×	8/13	  GET
 Hope Bowman	A+	7×	11/13	  GET
 Katrina Keller	A	2×	12/13	  GET
 Caitybeth	A	2×	10/13	  GET
 Esmi	A+	5×	12/13	  GET
 Amethyst	B+	2×	3/13	  GET
 Sydney._.huang	B+	15×	13/13	  GET
 si Hakim	B-	2×	4/13	  GET
 Dan Kuo	A+	5×	7/13	  GET
 Shuunka	A+	13×	12/13	  GET
 Randyn David	A+	7×	12/13	  GET
 dalampasigan08	A-	3×	10/13	  GET
 Bookphonepill	B+	5×	8/13	  GET
 Reia Metherle	B+	3×	11/13	  GET
 Flahme	A+	9×	13/13	  GET
 jjjaaayyy LOL neonmob	A-	7×	9/13	  GET
 Damontiareh	C	2×	4/13	  GET
 Dains	A+	14×	12/13	  GET
 Haku _	A+	10×	13/13	  GET
 Justpeachy	A+	4×	11/13	  GET
 Porsha Rich	A+	4×	9/13	  GET
 Ron Martin	A+	7×	11/13	  GET
 Victoria Vasquez	C+	2×	10/13	  GET
 Neonmobster_15215 Trade	A+	18×	12/13	  GET
 Malyssa Latta	A+	7×	10/13	  GET
 Shyyyvee	A+	7×	11/13	  GET
 Fischerlaurak	A+	4×	8/13	  GET
 Sfijal	A+	12×	11/13	  GET
 Iliana Petrova (Rabbit)	A+	9×	12/13	  GET
 Hughesy160	A+	15×	10/13	  GET
 Chris	A+	4×	12/13	  GET
 Leeuwe01	A	5×	9/13	  GET
 Neonmobster_9344	A+	5×	9/13	  GET
 Mila Theodin	A+	4×	12/13	  GET
 Rulerofthepotatoes	A+	13×	12/13	  GET
 Victor Arzola	A+	2×	10/13	  GET
 Yarrum	A+	6×	13/13	  GET
 Davidp	A+	7×	12/13	  GET
 Kenny F	A+	7×	13/13	  GET
 Dlr76	A+	6×	12/13	  GET
 Kharon Sonhir	A+	5×	11/13	  GET
 Kaylie Howard	A+	6×	9/13	  GET
 Frog Wednesday	A+	6×	10/13	  GET
 Annthelast	A+	4×	13/13	  GET
 Tyler	C	3×	9/13	  GET
 Ponti Nishikino	D	9×	9/13	  GET
 Tradehowyalike	A+	10×	8/13	  GET
 Matthew Chin	B-	2×	8/13	  GET
 Ivy Liang	A+	4×	9/13	  GET
 Amaterasu Cain	C-	5×	10/13	  GET
 Celine Ko	A	13×	11/13	  GET
 Rebecca Kelley	A	4×	9/13	  GET
 Sworly Worley	A+	23×	11/13	  GET
 Celine	A+	2×	8/13	  GET
 Antonio Martinez	A+	20×	10/13	  GET
 Nav	A+	26×	13/13	  GET
 Steve Honekai	A+	3×	9/13	  GET
 Karen Elliott	A+	3×	11/13	  GET
 Zenara Panadian	A+	2×	11/13	  GET
 Sandra A.	A+	13×	12/13	  GET
 Irishgirloriginal	A-	8×	13/13	  GET
 Adam Blatz	D-	4×	9/13	  GET
 Kelley Powell	A+	10×	11/13	  GET
 Trade my doubles!	B-	4×	7/13	  GET
 Gerettet	A+	11×	13/13	  GET
 Eileen McMahon	A-	3×	11/13	  GET
 Summer Vining	D+	2×	4/13	  GET
 Sharoontheraccoon	A+	13×	13/13	  GET
 Richard Miller	A+	6×	12/13	  GET
 Leticia Sampaio	A+	14×	9/13	  GET
 Benedick Bana	A+	2×	8/13	  GET
 Kelso	B	2×	4/13	  GET
 Stelliferous	A+	10×	10/13	  GET
 C R	A+	3×	9/13	  GET
 Rakaputra Paputungan	A+	8×	10/13	  GET
 Ashley Brim	A+	11×	13/13	  GET
 Aware	A+	5×	11/13	  GET
 Daniela Paglia	A+	16×	13/13	  GET
 Wesley Boone	A+	6×	13/13	  GET
 Nicole Borchers	B-	7×	9/13	  GET
 Vaporeon LovesWaffles	A+	3×	9/13	  GET
 Fishy90	D+	2×	4/13	  GET
 Marcia Lee	B	3×	10/13	  GET
 KucingKecil	A-	3×	12/13	  GET
 Sylvie	A+	7×	9/13	  GET
 Apocalypse	A+	2×	9/13	  GET
 Brian Kalish Jr.	A+	5×	11/13	  GET
 M.	A+	12×	12/13	  GET
 Scarlett Rose	B+	8×	9/13	  GET
 Eyliana	A+	9×	13/13	  GET
 otter	A+	2×	10/13	  GET
 pronto_pup	A+	5×	11/13	  GET
 Olivia Lane	A+	7×	11/13	  GET
 Caroline Kearney	B	5×	11/13	  GET
 Howling Ghostgirl	A+	4×	10/13	  GET
 Neonmobster_17496	A+	3×	12/13	  GET
 Leslie Guevara	A+	12×	11/13	  GET
 Neonmobster_2439	B-	8×	11/13	  GET
 Eldritchomen	D+	4×	9/13	  GET
 Mephisto	A+	16×	12/13	  GET
 Shirerat Rat	A+	2×	9/13	  GET
 Bianca.franceschi	A+	7×	9/13	  GET
 Intrepid	A+	30×	12/13	  GET
 Planet.xiv	A+	6×	13/13	  GET
 Angel Sanchez	A+	3×	10/13	  GET
 Nico Cherrywood	A	7×	12/13	  GET
 Amara Lalita	B+	4×	9/13	  GET
 Arang9	A	9×	10/13	  GET
 Jacob Imel	B	5×	8/13	  GET
 Fion Fox	A+	6×	13/13	  GET
 Bethany Fisher	A+	3×	9/13	  GET
 Mack Caddy	A+	8×	13/13	  GET
 Pelvichan	A+	6×	12/13	  GET
 Alicia Arsenault	A+	15×	12/13	  GET
 rosa beautiful	A+	2×	10/13	  GET
 Cris Michelini	A+	5×	11/13	  GET
 Luke Gibson	A+	11×	13/13	  GET
 Sltheringirl92	A+	5×	13/13	  GET
 Giggle Monster	A+	2×	11/13	  GET
 Low Yi Ven	A	25×	13/13	  GET
 Ariane Mahaffey	A	3×	10/13	  GET
 Leak	A+	6×	13/13	  GET
 Christopher Sampson	A+	6×	13/13	  GET
 Gavin	A+	8×	13/13	  GET
 Licc	B	4×	10/13	  GET
 Kim_s_walker	A+	4×	11/13	  GET
 Juan Calavera	A+	12×	10/13	  GET
 Angelique Jallow	B-	2×	8/13	  GET
 Cristina Piccin	A+	3×	9/13	  GET
 Allen Tran	A+	16×	13/13	  GET
 Darkcvc	A+	23×	13/13	  GET
 Dom Foord	A+	5×	10/13	  GET
 Sean	A	4×	10/13	  GET
 Yoshii	B+	7×	11/13	  GET
 David Agapiou	A+	14×	12/13	  GET
 Ivo Ordonha Cyrillo	A	3×	9/13	  GET
 Mold Chan	A+	4×	9/13	  GET
 Steven Edwards	A+	4×	10/13	  GET
 Anton Samper Rivaya	A	3×	6/13	  GET
 Kevin Behrendt	A	12×	10/13	  GET
 PK Amnuay	A+	4×	9/13	  GET
 Dan Themadhatter	A+	4×	12/13	  GET
 Max Z	B+	3×	9/13	  GET
 Leon Yonzon	A+	7×	10/13	  GET
 Fran Shay	B-	2×	8/13	  GET
 Caleb Elder-Hall	A+	8×	13/13	  GET
 Daniyel Mills	A+	2×	13/13	  GET
 Speedygirl	B+	6×	11/13	  GET
 Chris LeDoux	A+	3×	13/13	  GET
 CMW	A+	2×	7/13	  GET
 Emily	A+	2×	8/13	  GET
 Quatoes Wread	A+	14×	12/13	  GET
 Castle Jones	A+	5×	9/13	  GET
 Matthew	F	2×	5/13	  GET
 Neonmobster_19526	C	2×	9/13	  GET
 Jubi	A+	6×	10/13	  GET
 Stephanie Chappell	B	4×	8/13	  GET
 Glzluque_6	C-	3×	9/13	  GET
 Albanice	A+	10×	12/13	  GET
 Max Woo	A	3×	10/13	  GET
 Jt Caddy	B+	3×	11/13	  GET
 F F Wahyudi	A+	4×	11/13	  GET
 Thunder Bolt	B+	9×	11/13	  GET
 Rosestar55	A+	7×	13/13	  GET
 Docqb	B+	4×	10/13	  GET
 Eulenlied	A+	3×	13/13	  GET
 Trinity Bailey	B-	2×	5/13	  GET
 Alonso Medina	B	3×	11/13	  GET
 Goldenace	A+	2×	9/13	  GET
 Neonmobster_11430	A+	11×	12/13	  GET
 Neonmobster_12060	C	4×	11/13	  GET
 Maggie Hodges	C+	2×	9/13	  GET
 Maria Zandronaki	A	2×	7/13	  GET
 Dane Atticus Parker	F	4×	10/13	  GET
 Neonmobster_11955	A+	3×	12/13	  GET
 Orlando City SC Fan	A	2×	9/13	  GET
 Christine Musal	D-	4×	10/13	  GET
 F415H4L 4Q1L	A+	2×	11/13	  GET
 narwhale's cards	B+	2×	6/13	  GET
 Lori Hung	A+	2×	9/13	  GET
 April	A+	3×	7/13	  GET
 Erick Martinez	B+	7×	11/13	  GET
 T N	A+	2×	10/13	  GET
 Jedi_Brutus	A	6×	13/13	  GET
 Brenda	A+	2×	11/13	  GET
 Dixon Vew Lim	A+	6×	13/13	  GET
 Candyloidprocess	A+	2×	10/13	  GET
 Megan Schumacher	A+	13×	12/13	  GET
 Kari	A	4×	11/13	  GET
 Tiger Monkey	A+	11×	13/13	  GET
 Bee	B	3×	12/13	  GET
 Lina H. Droste	A+	8×	13/13	  GET
 Felipe Cthulipe	D	3×	3/13	  GET
 Considerableconfusion	B	2×	10/13	  GET
 Hayley Pearson	A+	6×	11/13	  GET
 TD G	B	8×	10/13	  GET
 Adam Ayatollah	A	8×	11/13	  GET
 Melissa Lawver	A+	2×	11/13	  GET
 Twiggleman	A	5×	13/13	  GET
 Fakehero	C-	7×	10/13	  GET
 Temperence Lapid	A-	2×	10/13	  GET
 Eduardo Jimenez	A+	11×	13/13	  GET
 Stapio	B+	2×	9/13	  GET
 Alexx	A+	6×	11/13	  GET
 Gabriela Scott	A+	20×	13/13	  GET
 Polly	A+	7×	11/13	  GET
 JordanSenpai	A+	2×	11/13	  GET
 Reza Pahlevi	F+	9×	13/13	  GET
 Jad Sum	C+	3×	10/13	  GET
 Jester37	A	5×	8/13	  GET
 Paola Casillas	A+	31×	13/13	  GET
 Yvahn Sy	F+	4×	3/13	  GET
 Mtzdiana	A-	2×	11/13	  GET
 otakuwithnolife	A+	7×	12/13	  GET
 Jenn	A+	14×	12/13	  GET
 Michael Bergmaier	A+	7×	13/13	  GET
 Alexander Dekker	A+	6×	9/13	  GET
 Jeannine Bolhouse	A+	6×	11/13	  GET
 Nemesis as Nehvita	B+	5×	10/13	  GET
 S K	A	5×	11/13	  GET
 Phvdev	B-	2×	7/13	  GET
 LOL2125hulk What?	A+	3×	11/13	  GET
 Salvador Jimenez	A+	6×	9/13	  GET
 LittleMonster97	A-	16×	13/13	  GET
 Mike	A+	5×	9/13	  GET
 Sally Tseng	A+	12×	11/13	  GET
 Wongiseng	D	2×	7/13	  GET
 Wangtangsoup	A+	8×	10/13	  GET
 Toa47	B	3×	8/13	  GET
 ada	A+	10×	12/13	  GET
 Katie Redmon	A+	16×	13/13	  GET
 Zax G	A+	3×	13/13	  GET
 Clay Johnson	A+	6×	10/13	  GET
 Collectorfreak	A+	5×	10/13	  GET
 Forsaken Reaper	A+	12×	12/13	  GET
 Joseph Han	A+	4×	9/13	  GET
 Redondo1324	B+	2×	9/13	  GET
 Riél Shadowveil	B+	3×	12/13	  GET
 Archcaster23	A-	11×	13/13	  GET
 dobbies	A+	3×	10/13	  GET
 Raikua	A+	14×	13/13	  GET
 Huntakilla	A+	4×	11/13	  GET
 Astig	C+	3×	9/13	  GET
 Mary Jensen	A+	4×	8/13	  GET
 David Stroble	A+	5×	10/13	  GET
 Trisieratops	A+	7×	11/13	  GET
 Nathan	B	5×	12/13	  GET
 Saoirse Reddin	B	3×	12/13	  GET
 Matheus oliveira	C+	22×	12/13	  GET
 Brian Stevenson	A+	5×	12/13	  GET
 Christine	A+	14×	11/13	  GET
 Rayden Shuman	B+	5×	8/13	  GET
 Mythicferret	A+	3×	10/13	  GET
 Abbie V.	A+	6×	12/13	  GET
 Ribena	A+	7×	13/13	  GET
 garry wong	A	2×	5/13	  GET
 Brianwolf	A+	16×	12/13	  GET
 Richard Cross	A+	11×	11/13	  GET
 Pablo Ramirez	A+	4×	9/13	  GET
 Assassincreeper21	A	2×	5/13	  GET
 Wakka	A+	4×	9/13	  GET
 Celine Oon	A+	4×	9/13	  GET
 Ayanhill25	A+	17×	13/13	  GET
 Alraune	C+	3×	11/13	  GET
 Outa Faith	A+	3×	9/13	  GET
 Britty	A+	10×	12/13	  GET
 Zephryl	A+	27×	13/13	  GET
 Frenchdavid51	F	3×	8/13	  GET
 Marco Nájera	A+	13×	13/13	  GET
 Phyno.papel	B+	3×	7/13	  GET
 Ray Lonsdale	A+	3×	11/13	  GET
 Tiffany Tolbert	A+	3×	10/13	  GET
 Ddixon68	A+	25×	13/13	  GET
 Carolyn Klassen	A	5×	11/13	  GET
 Doowutchyalike	A+	10×	13/13	  GET
 Morgana Harp	B	3×	9/13	  GET
 Rukiaskywalker	A	2×	9/13	  GET
 Nikki Nonya Beeswax	A	2×	10/13	  GET
 DMPL	A+	4×	9/13	  GET
 Tori W	D-	2×	6/13	  GET
 Rosco Nyenhuis	A+	7×	8/13	  GET
 Eric Liu	A+	9×	13/13	  GET
 Aza	A+	8×	13/13	  GET
 Yumekitsune	B-	2×	9/13	  GET
 Gannert	B+	7×	10/13	  GET
 Andreea Danielescu	A+	10×	13/13	  GET
 Dramaqueen09	A+	4×	12/13	  GET
 Shari F	A+	2×	11/13	  GET
 Hoppyschlitz	B	2×	9/13	  GET
 poita78	A+	2×	11/13	  GET
 Cleanblade	A+	22×	13/13	  GET
 Nicole Proud	A+	2×	4/13	  GET
 Richie S	A+	16×	11/13	  GET
 Z	A+	10×	12/13	  GET
 Sheridan Park	A+	8×	13/13	  GET
 Frank D	D+	2×	10/13	  GET
 Nina	A+	2×	8/13	  GET
 Daniel Jaramillo	B	3×	9/13	  GET
 Moonfluff	A+	4×	12/13	  GET
 Jacky Yuan	B+	4×	9/13	  GET
 Polar .....	A	2×	9/13	  GET
 Ethel Aguilar Luis	A+	13×	12/13	  GET
 Alex Eñeco	A	9×	10/13	  GET
 Aubrey Dunn	A+	2×	10/13	  GET
 Andrew Phillips	A	10×	12/13	  GET
 Dave Wilhelm	A+	2×	10/13	  GET
 Seth	A+	2×	9/13	  GET
 Fred Roseiro	A+	2×	8/13	  GET
 Ashley W	A	4×	8/13	  GET
 Pepe Vásquez	A+	3×	9/13	  GET
 Isarose Bluebeans	A+	3×	8/13	  GET
 Lys	A+	9×	12/13	  GET
 Zsuzsa Bányai	A+	4×	11/13	  GET
 Tim Beck	A+	4×	11/13	  GET
 Matthew Toyama	A+	18×	13/13	  GET
 Hamiltoon73	A	6×	9/13	  GET
 Quentin Falgas	A+	15×	11/13	  GET
 Neonmobster_19678	A+	4×	9/13	  GET
 Nate Rapai	A+	14×	11/13	  GET
 Neoncard Deals	A+	3×	5/13	  GET
 Angel neon Kittycat killa	C	4×	8/13	  GET
 Bianca Huayamabe	A+	3×	11/13	  GET
 Carlos Torres	A+	18×	11/13	  GET
 Welshen	C	4×	11/13	  GET
 Evan	B+	2×	11/13	  GET
 Deathtotheweird	A+	10×	12/13	  GET
 CindyPindy	C+	2×	7/13	  GET
 Jazen Chan	B-	6×	13/13	  GET
 Robin Bond	A+	17×	13/13	  GET
 Alice Rose	A-	8×	9/13	  GET
 Farisu	A+	23×	13/13	  GET
 Boon Chuan Lim	A+	12×	13/13	  GET
 Silverblazblue	A+	22×	13/13	  GET
 B_h_c	A+	12×	12/13	  GET
 Cheeks	A+	6×	9/13	  GET
 ACreativeSanctuary	C+	3×	9/13	  GET
 Noah Ortiz	A+	2×	9/13	  GET
 Camila Ludwig	D+	3×	9/13	  GET
 YoshtheGuardian	A+	11×	11/13	  GET
 Jaiie Ralen	A+	2×	11/13	  GET
 NuPunk	A+	12×	11/13	  GET
 Jleigh5496	A+	8×	12/13	  GET
 Neonmobsterfool	A+	12×	13/13	  GET
 Garrett	A+	12×	12/13	  GET
 Jlynne	C+	2×	6/13	  GET
 Heidi Rakow	C+	5×	11/13	  GET
 J B	A+	8×	13/13	  GET
 Carradéo Castello	D+	2×	7/13	  GET
 Indika Lockus	B	2×	5/13	  GET
 Alf Alfa	A+	17×	12/13	  GET
 Mtgproxymage	A+	13×	9/13	  GET
 Angel Cruz	B	2×	4/13	  GET
 Claude Goeminne	A+	9×	11/13	  GET
 Pudjiono_js	A	15×	12/13	  GET
 B B	A+	8×	12/13	  GET
 Kemeticcheshire	F+	2×	7/13	  GET
 Satusatu	C-	2×	8/13	  GET
 Onubeatricesimona	A+	7×	10/13	  GET
 Veronica	D+	2×	11/13	  GET
 Romeo Juliet	D-	2×	8/13	  GET
 Larry Wheeler	C+	5×	13/13	  GET
 Bre	A+	3×	11/13	  GET
 Bekki Bedow	A+	8×	13/13	  GET
 Sean Neprud	A+	14×	13/13	  GET
 Cassandra Sobek	A+	12×	13/13	  GET
 Red	A+	5×	12/13	  GET
 Crys Q	A+	3×	9/13	  GET
 Howtoletsplayer	A+	2×	6/13	  GET
 Anorak	A+	5×	9/13	  GET
 Jeffoids	A+	4×	10/13	  GET
 Intotheforests	A+	6×	13/13	  GET
 Joe K	A+	4×	10/13	  GET
 Luis Ruiz	A+	2×	9/13	  GET
 Lori	A	3×	7/13	  GET
 Alecsandra Elena	A+	13×	12/13	  GET
 Whcdemja	B+	6×	12/13	  GET
 Dahl Lovelace	A+	6×	9/13	  GET
 Enfuegopies Cyugy	A+	3×	11/13	  GET
 Sachi	A+	2×	8/13	  GET
 Austin JV	A	2×	4/13	  GET
 Neonmobster_19855	B	3×	10/13	  GET
 Claudia Garcia	D+	2×	10/13	  GET
 Brianc231	A+	11×	11/13	  GET
 Tris	C	4×	9/13	  GET
 Niki	A+	12×	13/13	  GET
 Veronel	A+	7×	10/13	  GET
 violet_haze	A+	5×	10/13	  GET
 Vlad Ciule	A+	18×	13/13	  GET
 Mike Cundiff	A	5×	6/13	  GET
 Livefox	A	4×	12/13	  GET
 Aki Balta	A-	2×	10/13	  GET
 cecilia barbosa	A+	10×	13/13	  GET
 Eliana	A+	2×	9/13	  GET
 Energywolf	A	3×	9/13	  GET
 sydney k	A+	2×	6/13	  GET
 Jazzy	A+	8×	12/13	  GET
 Jakeb114	A+	3×	9/13	  GET
 Linus Lundahl	A+	3×	7/13	  GET
 Jennifer S.	A+	8×	9/13	  GET
 Yanga	C+	2×	9/13	  GET
 Mercyfortheundead	A	3×	7/13	  GET
 Armczoe	A-	2×	3/13	  GET
 lava hawk	A+	2×	10/13	  GET
 Konrad Koessel	A+	12×	10/13	  GET
 Jbstone_14	B	6×	8/13	  GET
 Oliver Sparkes	A+	11×	13/13	  GET
 Kashimma Danner	A+	9×	11/13	  GET
 N7 Vega	A	4×	11/13	  GET
 Val A	A	5×	9/13	  GET
 Poppi	A+	12×	11/13	  GET
 Zmajcek	A-	3×	10/13	  GET
 Melanie Easterbrook	A	5×	13/13	  GET
 James Jang	A+	2×	7/13	  GET
 Shephered	A+	21×	13/13	  GET
 Amber Squash	A+	2×	9/13	  GET
 Justin Gain	A+	2×	7/13	  GET
 Skye Leung	C+	2×	9/13	  GET
 Setep AnkhAtum	F	2×	7/13	  GET
 Winson	B-	8×	12/13	  GET
 Lisa Bugden	A+	11×	11/13	  GET
 Neonmobster_15766	B+	4×	10/13	  GET
 Amber Hall	B-	2×	8/13	  GET
 Rajmund Nagy	A+	3×	13/13	  GET
 Jackjackatomatom	C	4×	9/13	  GET
 Misterdusk	A+	18×	13/13	  GET
 etcetera	A+	4×	11/13	  GET
 Ttmeyers	A+	3×	8/13	  GET
 Oli Odd	D-	3×	7/13	  GET
 Hellsliver	B+	3×	9/13	  GET
 Dindeen Jaro	B-	17×	12/13	  GET
 Janetmartzero	A+	2×	10/13	  GET
 Fryingpansam93	A+	11×	13/13	  GET
 Jo Wolf	A	2×	9/13	  GET
 Phelix	A	8×	13/13	  GET
 Ms Meow	A+	4×	11/13	  GET
 Oana Maria Vlad	A+	21×	13/13	  GET
 Yushenglim	B+	5×	10/13	  GET
 alunia6191	A+	6×	10/13	  GET
 A-Z AlphaBetha	B+	5×	9/13	  GET
 Jg21	D-	4×	11/13	  GET
 Fer G Mainou	A+	4×	8/13	  GET
 Velin	A	4×	11/13	  GET
 Neonmobster_9982	A	2×	12/13	  GET
 Filmsamurai	A+	5×	9/13	  GET
 Dstep	A+	6×	10/13	  GET
 Tobias Røvik	C-	2×	8/13	  GET
 Jerson Ambion	A-	15×	12/13	  GET
 Nathan Mekola	B	2×	5/13	  GET
 Mel L	A+	5×	13/13	  GET
 Julie Gooch	A+	3×	10/13	  GET
 Neonmobster_14357	A+	3×	6/13	  GET
 Josh	A+	10×	11/13	  GET
 Iarlaith Behan	C+	3×	9/13	  GET
 Asces05	A+	9×	13/13	  GET
 Catherine	A+	2×	12/13	  GET
 Ciol_muse	F	8×	9/13	  GET
 Lyra	A+	9×	12/13	  GET
 ben thomas	A	3×	10/13	  GET
 Schultz1077	A+	6×	12/13	  GET
 Tom Van Damme	A+	5×	11/13	  GET
 Rochellebernadette	A	2×	9/13	  GET
 Bobit_rex	A-	6×	8/13	  GET
 Herman Yang	A+	5×	10/13	  GET
 Everi_chalis	B+	3×	7/13	  GET
 Autumn Miller	A+	8×	11/13	  GET
 Aliensmileyface	A+	5×	11/13	  GET
 nordly	A+	2×	6/13	  GET
 HowNow MeowNow	A+	3×	10/13	  GET
 Tsuki Yagami	A+	3×	10/13	  GET
 Demonic_rain_	A+	5×	12/13	  GET
 Jai	A+	6×	10/13	  GET
 Anna Monroe	A+	2×	10/13	  GET
 Emi	A+	23×	11/13	  GET
 Kayla	A	8×	12/13	  GET
 Lauren Wilson	B+	5×	8/13	  GET
 Mantahugh	C+	2×	4/13	  GET
 Layton	A+	11×	13/13	  GET
 Marelle	A+	11×	11/13	  GET
 Ella.sophi	A-	4×	10/13	  GET
 IdoNotSayBlehBlehBleh	A+	3×	10/13	  GET
 Rize	A+	2×	9/13	  GET
 Kristen Murphy	C	3×	7/13	  GET
 Ilsy	A+	2×	10/13	  GET
 Neonmobster_9817	A	2×	9/13	  GET
 Josh Lamb	A+	6×	10/13	  GET
 Sebastian Williams	F	3×	9/13	  GET
 David.htc.leaco	A-	4×	10/13	  GET
 Ben Williams	A	6×	11/13	  GET
 Neonmobster_19541	A+	5×	9/13	  GET
 Ana Gonçalves	A+	2×	9/13	  GET
 Davy Shirley	A+	7×	13/13	  GET
 Bannerman	A+	4×	9/13	  GET
 Hedua Nyang	B	5×	12/13	  GET
 Rc42	A	6×	9/13	  GET
 Florian Fekkes	A+	17×	13/13	  GET
 Lea	A+	4×	13/13	  GET
 Soren Stormcrow	C+	6×	9/13	  GET
 Grizzly_adams008	A-	2×	9/13	  GET
 Luiz Wendt	A	5×	9/13	  GET
 Blackie Panthy	A	27×	13/13	  GET
 mira	A	2×	7/13	  GET
 Karen Ramsey	A+	9×	13/13	  GET
 Randallpinkflyd	A+	6×	13/13	  GET
 Aria DuFreak	C+	5×	12/13	  GET
 Leah Froehle	A+	7×	12/13	  GET
 Cramer	A+	17×	13/13	  GET
 Jekajohn	A+	18×	13/13	  GET
 Loss Soul	B-	5×	7/13	  GET
 Heilyn Yip	B	2×	7/13	  GET
 Giulia Degortes Caivano	A+	10×	13/13	  GET
 Shadowscout114	B-	2×	10/13	  GET
 Cyrion Cynin	A+	2×	11/13	  GET
 Lando	C	2×	5/13	  GET
 Dimitris Nikitas	A+	24×	13/13	  GET
 Neonmobster_19561	A+	2×	4/13	  GET
 Jenny C.	A+	2×	10/13	  GET
 Nii	B+	2×	10/13	  GET
 Hobby Cards	A+	11×	13/13	  GET
 Jeff Helton	A+	18×	13/13	  GET
 Ich Dolgner	A	1×	10/13	  GET
 Patryk Surmacz	A+	1×	7/13	  GET
 Watcherorca	B	1×	9/13	  GET
 Cece Donuts	A+	1×	12/13	  GET
 Pablo Rivas	A+	1×	9/13	  GET
 Rokrevthin	A+	1×	9/13	  GET
 Flor	A	1×	8/13	  GET
 aprilgoo	A+	1×	7/13	  GET
 Hannah	A+	1×	5/13	  GET
 Nicole G	A	1×	4/13	  GET
 Nkeithart	A+	1×	5/13	  GET
 Xavier Espinosa	D-	1×	6/13	  GET
 Ashley T	B	1×	4/13	  GET
 Meri	B+	1×	3/13	  GET
 Antonio Ventura III	A-	1×	10/13	  GET
 Emma Hryniewicz	A+	1×	7/13	  GET
 Kota Wolfe	A	1×	8/13	  GET
 Trader Jill	A+	1×	4/13	  GET
 Kim Ico	A+	1×	8/13	  GET
 João Fagundes	B-	1×	1/13	  GET
 Beriii	B-	1×	4/13	  GET
 Neonmobster_2753	B+	1×	5/13	  GET
 Linivy	A+	1×	10/13	  GET
 Gabrielle	A+	1×	8/13	  GET
 Neon lobster	B	1×	9/13	  GET
 blue caped	A	1×	6/13	  GET
 M	A+	1×	6/13	  GET
 Io Regalado	F	1×	4/13	  GET
 NeOnMoBsTeR MaTt	A+	1×	2/13	  GET
 Cory Ruda	A+	1×	13/13	  GET
 Aristy	F	1×	6/13	  GET
 Chloe Carter	C-	1×	7/13	  GET
 Neonmobster_13726	A	1×	6/13	  GET
 Miguel Rosales	C	1×	2/13	  GET
 Zachary Nicoll	A+	1×	9/13	  GET
 Pule Mudaliar	A+	1×	2/13	  GET
 Zimbooky digital	C	1×	4/13	  GET
 BananaPepper	A	1×	9/13	  GET
 Skrimply	C-	1×	7/13	  GET
 Zoila NEEDS more ERs.	A+	1×	10/13	  GET
 Rubber Duck	A-	1×	9/13	  GET
 Angell Gray	A+	1×	6/13	  GET
 Delesa Lc	A+	1×	9/13	  GET
 Richard	A	1×	9/13	  GET
 Rebeldog	A+	1×	10/13	  GET
 Neonmobster_12467	A+	1×	10/13	  GET
 Noelle Adriene Castellano	F	1×	7/13	  GET
 Mattias Grendelson	A	1×	2/13	  GET
 Ayumii	A+	1×	10/13	  GET
 Candy Stains	B-	1×	8/13	  GET
 Cherry Elias	A	1×	8/13	  GET
 Ari	A+	1×	9/13	  GET
 Jeremy Heirs	A+	1×	7/13	  GET
 Michael Duke	A+	1×	7/13	  GET
 Danielle Doyle	A+	1×	10/13	  GET
 Matt Pinkerton	B+	1×	5/13	  GET
 Dawn ScaryGodmother	A+	1×	3/13	  GET
 ZOMB13POX	A-	1×	6/13	  GET
 Denys Chernenko	B	1×	2/13	  GET
 Michelle	A+	1×	9/13	  GET
 Neonmobster_19703	B	1×	2/13	  GET
 Duhwego	C-	1×	3/13	  GET
 Lucy Heartfilia	A+	1×	9/13	  GET
 vir.	D-	1×	3/13	  GET
 Chris	B	1×	12/13	  GET
 Lifeliked	A+	1×	7/13	  GET
 Lithia	D	1×	9/13	  GET
 Megan F Miller	A+	1×	6/13	  GET
 Tom Dutt	C+	1×	6/13	  GET
 Julian Zapata	A	1×	5/13	  GET
 Asia	A+	1×	9/13	  GET
 Candice Litton	B	1×	5/13	  GET
 Whisperwicked	B	1×	6/13	  GET
 Chou Abd	A+	1×	13/13	  GET
 Callump.1997	A+	1×	1/13	  GET
 Marcos Anguiano	A	1×	10/13	  GET
 Lucia Helena Neves	A+	1×	7/13	  GET
 Scarily	C-	1×	5/13	  GET
 Haley Williams	D	1×	4/13	  GET
 Tridus	A+	1×	8/13	  GET
 Secrethood	B+	1×	9/13	  GET
 Debra T	A+	1×	11/13	  GET
 Pol_andrissus	B	1×	8/13	  GET
 Brandon Hyman	A+	1×	10/13	  GET
 Emerald C	A+	1×	9/13	  GET
 Calvin Estrada	C+	1×	6/13	  GET
 Kelsey Bury	B	1×	11/13	  GET
 Ryan	F+	1×	6/13	  GET
 Lucinara Helen	A	1×	7/13	  GET
 Seafaeries	A+	1×	6/13	  GET
 satine BRING OLD NEONMOB BACK!!!!!!	A+	1×	7/13	  GET
 Natália Gomes	F	1×	2/13	  GET
 Derek Iseri	F+	1×	4/13	  GET
 Demian	A+	1×	6/13	  GET
 Titans Fan	B	1×	9/13	  GET
 Tara Von 6	A+	1×	6/13	  GET
 Lil.RedRobinHood	A+	1×	2/13	  GET
 Stealthcat	D-	1×	7/13	  GET
 Jennifer Ritz	A+	1×	10/13	  GET
 Nellephant	A+	1×	11/13	  GET
 Neonmobster_19495	C	1×	4/13	  GET
 maddi	C	1×	8/13	  GET
 Deferdus	C-	1×	8/13	  GET
 Briana Mills	B	1×	7/13	  GET
 Sparklybluemew	A+	1×	9/13	  GET
 Marc Antoine	A+	1×	2/13	  GET
 Patrick Edinger	B	1×	5/13	  GET
 Big250	F	1×	5/13	  GET
 Kankants36	A-	1×	6/13	  GET
 Emilychi	A+	1×	8/13	  GET
 Joseph Calangian	C	1×	9/13	  GET
 Charlotta	A+	1×	4/13	  GET
 Rocktell	C	1×	5/13	  GET
 Hallie Mareepshrek	B	1×	5/13	  GET
 Teammisery	A+	1×	8/13	  GET
 Alicia Flores	D+	1×	5/13	  GET
 Zeynep Ferah	A+	1×	8/13	  GET
 Terrance Davis, Jr.	A+	1×	7/13	  GET
 Blur	A+	1×	2/13	  GET
 istormyraveni	B	1×	6/13	  GET
 Kristoffergoodman Hammoda	A	1×	11/13	  GET
 Sephtis	A+	1×	6/13	  GET
 Shaaya	A+	1×	6/13	  GET
 Millia	A+	1×	2/13	  GET
 Mindgvmes	B+	1×	7/13	  GET
 Zenom24	A	1×	10/13	  GET
 Bill Yeung	A	1×	4/13	  GET
 Fencer	B	1×	3/13	  GET
 Marion KH	D	1×	7/13	  GET
 Tombolo	A+	1×	5/13	  GET
 draconian Voltage	A+	1×	12/13	  GET
 Neonmobster_19581	C	1×	2/13	  GET
 Aubrey Lyons	A+	1×	10/13	  GET
 Beatrice Sullivan	B-	1×	2/13	  GET
 Iwasonabox	A	1×	3/13	  GET
 Jacko7794	A+	1×	6/13	  GET
 sarabellum - going to give it one more try... : |	A+	1×	7/13	  GET
 Imlostcanuhelpme	A+	1×	6/13	  GET
 Bahamut_Xero	C+	1×	3/13	  GET
 Brandy Meyering	D+	1×	5/13	  GET
 Jennifer Hudson	A+	1×	8/13	  GET
 Luciferhart	C+	1×	4/13	  GET
 Matias Ezequiel	C	1×	2/13	  GET
 Julien Sloan	B+	1×	8/13	  GET
 Mjs543	A+	1×	9/13	  GET
 Liam	A+	1×	7/13	  GET
 Breanna Byrd	F	1×	2/13	  GET
 Sarah.wood04	D-	1×	3/13	  GET
 Andrew Cobra	A+	1×	8/13	  GET
 Rei	B+	1×	6/13	  GET
 Ash-Marie Hernandez	A-	1×	8/13	  GET
 Kristin	A-	1×	9/13	  GET
 Mwolfe	A+	1×	8/13	  GET
 Denise Gutierrez	A+	1×	2/13	  GET
 Hyepeople	B+	1×	8/13	  GET
 Altfb00	B	1×	10/13	  GET
 Marshall Easter	A+	1×	9/13	  GET
 Travis.k	A+	1×	10/13	  GET
 Mark Qi	C-	1×	8/13	  GET
 Atatdriver	A+	1×	8/13	  GET
 Jayythanerd24	C	1×	4/13	  GET
 Raian Raben	A+	1×	7/13	  GET
 Skywalker	C-	1×	2/13	  GET
 Astrid Schoenly	B	1×	5/13	  GET
 Ambsace	A+	1×	9/13	  GET
 Keiko Watanabe	B+	1×	10/13	  GET
 Jessica Trask	A-	1×	8/13	  GET
 Alice	A+	1×	4/13	  GET
 Rapunzel NotGothel	A+	1×	8/13	  GET
 Omaralbertorios	C	1×	5/13	  GET
 agro1986	B	1×	2/13	  GET
 Michael Phillips	A+	1×	10/13	  GET
 Majordirewolf	A+	1×	7/13	  GET
 Elian Kurnia	C+	1×	5/13	  GET
 Neonmobster_19728	C	1×	2/13	  GET
 Miranda Boettcher	A+	1×	9/13	  GET
 PopmonCat	B	1×	4/13	  GET
 Mariah Subia	A-	1×	9/13	  GET
 Thunderwolf5	B-	1×	6/13	  GET
 Jessica LaDuke	A+	1×	9/13	  GET
 Iamcopperman	B	1×	4/13	  GET
 Tarielen Veritas	A+	1×	11/13	  GET
 Laurenelizabeth	B-	1×	6/13	  GET
 Kaitie Clink	B	1×	9/13	  GET
 Dmontoyaster	A+	1×	9/13	  GET
 Conner Ward	A	1×	9/13	  GET
 Definitely The All-Father	B-	1×	9/13	  GET
 Tini	A+	1×	9/13	  GET
 Philap_bygar	B+	1×	7/13	  GET
 Kindheartedspirit	A+	1×	4/13	  GET
 Kacper Ruszczyk	D+	1×	7/13	  GET
 Lene Vau	A+	1×	8/13	  GET
 Hendrik Lian	B-	1×	8/13	  GET
 Royce Rinck	D-	1×	5/13	  GET
 Joel Vergara	C-	1×	8/13	  GET
 John Nero Solace Foulds J.U.B.	A+	1×	9/13	  GET
 Cloud	A+	1×	9/13	  GET
 Keikomushi	F+	1×	9/13	  GET
 Craven Eudy	A+	1×	11/13	  GET
 Giu B	A	1×	6/13	  GET
 Lanadelreysentme	F	1×	4/13	  GET
 Illogicalquacking	A+	1×	7/13	  GET
 Emily Kreutzer	B-	1×	2/13	  GET
 Brittany Swensson	A+	1×	7/13	  GET
 Ayumi	A+	1×	7/13	  GET
 Omni	A	1×	5/13	  GET
 Giulia Cavallari	B+	1×	13/13	  GET
 Anthony Guzman	A	1×	7/13	  GET
 Aquameringue	B	1×	8/13	  GET
 Kitkatzfosupahcatzez	A+	1×	4/13	  GET
 Neon7777	C+	1×	6/13	  GET
 Steph Talerico	A+	1×	12/13	  GET
 Grawlix_13	F	1×	5/13	  GET
 Brenna Brumfield	D-	1×	5/13	  GET
 Joe Ruske	A+	1×	10/13	  GET
 Salvador7a	A+	1×	2/13	  GET
 Qazyn	A+	1×	11/13	  GET
 Inka Jesanra	B	1×	9/13	  GET
 Ashley Adelaide	A-	1×	7/13	  GET
 MeiWei	D-	1×	4/13	  GET
 Beto	A+	1×	2/13	  GET
 Andre Lorenzo	A+	1×	8/13	  GET
 Yvette	A+	1×	2/13	  GET
 Mario	A+	1×	10/13	  GET
 Itachi	B	1×	10/13	  GET
 Nik Chin	A+	1×	6/13	  GET
 Shawn Steele	A+	1×	5/13	  GET
 Infamous_shadow8452	A-	1×	3/13	  GET
 Contessa Carmilla	C	1×	4/13	  GET
 Rachel McCullough	A+	1×	12/13	  GET
 Omgsasuke	B-	1×	2/13	  GET
 Karla Alice Renée	A+	1×	7/13	  GET
 Flareonchoo	C	1×	6/13	  GET
 Collector32	A+	1×	4/13	  GET
 Kurtbail	A-	1×	6/13	  GET
 Tjnoverofett	F	1×	5/13	  GET
 Greenghost242	A+	1×	6/13	  GET
 Loki	D+	1×	10/13	  GET
 Raphael BN	B	1×	5/13	  GET
 Destielgurl	A+	1×	2/13	  GET
 Belchertina4	B-	1×	8/13	  GET
 Nick Bukiet	A+	1×	9/13	  GET
 Day Five RT	A	1×	5/13	  GET
 Roux Hannah	A+	1×	9/13	  GET
 Robin Jones	A+	1×	2/13	  GET
 Vanilla	A+	1×	9/13	  GET
 Bobbi Arch	A+	1×	9/13	  GET
 Incathuga	B+	1×	4/13	  GET
 Raya	B+	1×	6/13	  GET
 Leann Thieu	A+	1×	10/13	  GET
 Ezra	A+	1×	7/13	  GET
 Samantha Dorminy	C	1×	4/13	  GET
 PokemonToons	B-	1×	8/13	  GET
 Cupcakes_n_rainbows_yay	A+	1×	6/13	  GET
 Shade20xx	A+	1×	13/13	  GET
 Altheas1986	A+	1×	7/13	  GET
 Jason Perkins	F	1×	8/13	  GET
 Samantha Long	A+	1×	9/13	  GET
 Ellie Kerr	A+	1×	1/13	  GET
 R	A+	1×	2/13	  GET
 Katie Smith	B-	1×	8/13	  GET
 Atinyhiccup	A+	1×	8/13	  GET
 Koolza	A	1×	7/13	  GET
 Aqua	A+	1×	9/13	  GET
 Teth	C	1×	6/13	  GET
 Mithosfall	A+	1×	9/13	  GET
 Alex	A+	1×	4/13	  GET
 mirrors.edge	A+	1×	9/13	  GET
 Minhuitstella	A+	1×	3/13	  GET
 Ernest Mattingly	A+	1×	6/13	  GET
 Sara Uzumaki	B	1×	5/13	  GET
 Dizizpamela	B+	1×	8/13	  GET
 Fadeafterfall	A+	1×	2/13	  GET
 Gerlinde Kiervsac	C	1×	4/13	  GET
 Sabrina Gomez	A+	1×	7/13	  GET
 Tessa Sykes	C-	1×	8/13	  GET
 Kristina	A+	1×	7/13	  GET
 César Otero	B	1×	6/13	  GET
 Alex Lynn Rose	B	1×	2/13	  GET
 Noam Grossman	B	1×	5/13	  GET
 Raymond Martinez	A	1×	8/13	  GET
 M.dominguez	A+	1×	8/13	  GET
 Animestuffs	B-	1×	7/13	  GET
 Mike	D	1×	10/13	  GET
 Namine	A+	1×	5/13	  GET
 izzy Si	B	1×	2/13	  GET
 Parry Hotter	B	1×	8/13	  GET
 Sara Samples	A	1×	10/13	  GET
 Lena	A	1×	5/13	  GET
 Papitasconmayo	D+	1×	5/13	  GET
 Hazel Chong	A+	1×	7/13	  GET
 Natalie O'Connor	C+	1×	5/13	  GET
 David Zobel	C+	1×	4/13	  GET
 Evan Colston	A+	1×	9/13	  GET
 Lawlessfighter	D-	1×	10/13	  GET
 Spacedolphin	B	1×	4/13	  GET
 Blank RobinHood	A+	1×	9/13	  GET
 Aesyulli Jacobe	C	1×	4/13	  GET
 Miro Kuusisto	A+	1×	5/13	  GET
 Marlene Hondal	A+	1×	10/13	  GET
 Lianicababia	A-	1×	7/13	  GET
 Alexander Shen	A	1×	4/13	  GET
 Kim Kim Del Prado	B	1×	10/13	  GET
 MaKayla Hegger	A+	1×	8/13	  GET
 Mikhail Gorbachev	A+	1×	9/13	  GET
 Derek Wellington	A+	1×	10/13	  GET
 Vee	D-	1×	4/13	  GET
 Rhicks720	C-	1×	8/13	  GET
 Aurasaur	B+	1×	8/13	  GET
 Jesus Camargo	A+	1×	7/13	  GET
 Markoi	B-	1×	9/13	  GET
 Jessica Carroll	A+	1×	10/13	  GET
 Whitetopia	C+	1×	4/13	  GET
 Jade	A+	1×	2/13	  GET
 Aresroyal	A	1×	9/13	  GET
 Kitty Karnage	A+	1×	9/13	  GET
 Emily Bacher	A+	1×	8/13	  GET
 Victor Lozano	B+	1×	5/13	  GET
 Nayrz	A+	1×	10/13	  GET
 Mark McCormack	A	1×	6/13	  GET
 Jamie Smith	B	1×	7/13	  GET
 Scarablabs	A+	1×	9/13	  GET
 Freya Silvermoon	B	1×	3/13	  GET
 Henry Lim	A+	1×	3/13	  GET
 Megan Filion-Roy	A+	1×	4/13	  GET
 Neonmobster_582	A	1×	6/13	  GET
 Frank Montoya	A+	1×	2/13	  GET
 Heather Moxley	A	1×	8/13	  GET
 James Newton	A	1×	3/13	  GET
 Amos The Fanboy	A+	1×	10/13	  GET
 Tamaro Kali	F+	1×	4/13	  GET
 Sera Wings	A+	1×	11/13	  GET
 Noctu	A	1×	2/13	  GET
 Pinchproof	A+	1×	9/13	  GET
 Oran123	B	1×	10/13	  GET
 Ella	B	1×	8/13	  GET
 Eduarxo	D+	1×	5/13	  GET
 Robert Jackley	B+	1×	7/13	  GET
 Luna Bear	B	1×	6/13	  GET
 George Wilkins	B	1×	2/13	  GET
 Jacob G	A+	1×	5/13	  GET
 Khoth	A	1×	5/13	  GET
 S3_m1	D	1×	2/13	  GET
 Karl Eisenbraun	B+	1×	7/13	  GET
 Chelsey Atkinson	D	1×	3/13	  GET
 Ed McCarty	A+	1×	8/13	  GET
 Ida	A+	1×	8/13	  GET
 Vennal	B-	1×	7/13	  GET
 The Paper Man	A+	1×	10/13	  GET
 I Love Cookies... Do You?	A+	1×	7/13	  GET
 Neonmobster_19919	B	1×	5/13	  GET
 SuicidalxBullet	A+	1×	7/13	  GET
 Pete Langlois	A+	1×	9/13	  GET
 David	A	1×	11/13	  GET
 Belovedmuerto	A	1×	8/13	  GET
 Vaderspittbull	B-	1×	7/13	  GET
 Michael Raphael	C+	1×	6/13	  GET
 Chelsey Wilder	B+	1×	6/13	  GET
 Sierra Neonmobstersvoicesnotheard	B-	1×	7/13	  GET
 Cat	A	1×	5/13	  GET
 Heather Cournoyer	A+	1×	7/13	  GET
 Catie Lambert Soliz	C+	1×	4/13	  GET
 Neonmobster_19868	A+	1×	9/13	  GET
 Zlaster's Melancholy for the 70%	A+	1×	2/13	  GET
 Eugenia Romero	A+	1×	8/13	  GET
 Kalea Anderson	B	1×	7/13	  GET
 Sarah McMullan	A+	1×	13/13	  GET
 Chilly Macs	A	1×	6/13	  GET
 Han5h0tf1r5t	F	1×	9/13	  GET
 YoungBooDuh	B+	1×	5/13	  GET
 Skylar Rose	A+	1×	13/13	  GET
 CutterL	A	1×	7/13	  GET
 Jennifer	A+	1×	10/13	  GET
 Marília Bissigo	A+	1×	5/13	  GET
 Doc Whooves	C-	1×	5/13	  GET
 Kjukna	A+	1×	10/13	  GET
 Monicamonster	C-	1×	7/13	  GET
 Dalton Hurd	F	1×	4/13	  GET
 Charles Hurtt	A+	1×	8/13	  GET
 Jj Garcia	C	1×	3/13	  GET
 Neonmobster_12005	C	1×	7/13	  GET
 Qilin	B-	1×	10/13	  GET
 Saku AntiqueGarden	B	1×	5/13	  GET
 Mardan Tesoro	A+	1×	8/13	  GET
 James McBeth	D	1×	6/13	  GET
 Cristina Videanu	B	1×	3/13	  GET
 Rick Sanchez	A-	1×	3/13	  GET
 Christian barron	B-	1×	5/13	  GET
 Asher Koetitz	A+	1×	4/13	  GET
 Saraluna23	B	1×	9/13	  GET
 Shozo	B-	1×	5/13	  GET
 Iskkdg	A+	1×	10/13	  GET
 Eriss	A+	1×	13/13	  GET
 Xx420hits420xx	A+	1×	6/13	  GET
 Zoanthia	A+	1×	3/13	  GET
 Jason Eggert	A+	1×	5/13	  GET
 Evangelina Ledesma	A+	1×	10/13	  GET
 Liteya	A	1×	7/13	  GET
 Jupiter.litton	C+	1×	2/13	  GET
 crainbo	A	1×	3/13	  GET
 Hayley	A+	1×	11/13	  GET
 Rachel Sampson	A	1×	8/13	  GET
 The Wolverine	B+	1×	3/13	  GET
 Leticia Castrillo	C	1×	2/13	  GET
 Jvmagicman	A	1×	10/13	  GET
 Lunaticturtle	A	1×	2/13	  GET
 Nicolas Rewardi	A	1×	9/13	  GET
 Darin Grechus	A	1×	3/13	  GET
 Marjorieabagon	B-	1×	5/13	  GET
 Kiko Axure	A	1×	7/13	  GET
 Jim Todd	A+	1×	9/13	  GET
 Emili Bustillos	C	1×	8/13	  GET
 Rauldorn	A	1×	2/13	  GET
 Andreeacatalina	A+	1×	11/13	  GET
 Yhammer	A+	1×	2/13	  GET
 Zanrin	A+	1×	10/13	  GET
 spooky hami	D	1×	9/13	  GET
 Ca_franciscoreyes	D-	1×	6/13	  GET
 Naymecraft	A+	1×	8/13	  GET
 Inmortalia Etherea	C-	1×	7/13	  GET
 Cheekylala	A+	1×	9/13	  GET
 Greyfalken	A+	1×	3/13	  GET
 Hélder Marins	B	1×	4/13	  GET
 Tiffie	A+	1×	7/13	  GET
 Owen Valzer	A+	1×	7/13	  GET
 Varactyls	A+	1×	2/13	  GET
 Xxangelpastelxx	B	1×	8/13	  GET
 Mina Miladinovic	B-	1×	4/13	  GET
 Colin HYJ	A+	1×	7/13	  GET
 Missy	C-	1×	5/13	  GET
 Omar Rios	B	1×	5/13	  GET
 Vicbig	B	1×	2/13	  GET
 D N	A+	1×	13/13	  GET
 Neonmobster_19857	B+	1×	8/13	  GET
 Neonmobster_11050	A+	1×	8/13	  GET
 Jujubalina	B+	1×	7/13	  GET
 Malcon Serrano	A+	1×	7/13	  GET
 Gloria Buschmann	D	1×	7/13	  GET
 Vanessa Zanini	A+	1×	6/13	  GET
 Gc	B-	1×	6/13	  GET
 Destery Michaelis	A	1×	9/13	  GET
 Hiccups4days	B-	1×	7/13	  GET
 Aaron Johnston	A	1×	8/13	  GET
 Calimali227	C+	1×	8/13	  GET
 Electric	A+	1×	10/13	  GET
 Halfling23	A+	1×	7/13	  GET
 Addicted Collector	B-	1×	8/13	  GET
 Joe Alagna	A-	1×	6/13	  GET
 George Escobedo	C	1×	2/13	  GET
 Zipos	A+	1×	10/13	  GET
 Marblepop	B-	1×	6/13	  GET
 Flyingbunnyninja	B-	1×	7/13	  GET
 Melissa Baldwin	A+	1×	7/13	  GET
 Yuvalktamar	A	1×	5/13	  GET
 Emily	C	1×	8/13	  GET
 Irena Ravandi	B+	1×	6/13	  GET
 Branson Strawderman	C+	1×	6/13	  GET
 Kwnak79	B+	1×	2/13	  GET
 Shadowkionic	B+	1×	8/13	  GET
 Tinytrixie3	F	1×	4/13	  GET
 Drew Stone	A+	1×	2/13	  GET
 Jclone	A	1×	8/13	  GET
 Isaluciano	B+	1×	6/13	  GET
 Tally8tone	A+	1×	5/13	  GET
 John Villarose VI	A+	1×	7/13	  GET
 Fanyfanyfanboy	A+	1×	7/13	  GET
 Izantily	C	1×	6/13	  GET
 Joseph	A+	1×	10/13	  GET
 Aetiusreloaded	D	1×	3/13	  GET
 moon.tree	A+	1×	7/13	  GET
 Amber van Dokkum	B	1×	5/13	  GET
 Milaine	A+	1×	7/13	  GET
 Potat	B-	1×	7/13	  GET
 Bazameee	B	1×	10/13	  GET
 Amanda Ilovecatcards	A+	1×	9/13	  GET
 Heather	A+	1×	11/13	  GET
 Anna Borodienko	D+	1×	5/13	  GET
 Andrea Bonilla	C+	1×	8/13	  GET
 Abi Texidor Garcia	B	1×	10/13	  GET
 Arthur Cua	A+	1×	2/13	  GET
 Chloepbou	C-	1×	5/13	  GET
 Alex	B+	1×	6/13	  GET
 Afrosquirrel	A-	1×	5/13	  GET
 jilllenotjilly -_-	A	1×	10/13	  GET
 Rookiespoiler	B	1×	8/13	  GET
 Lap Fung Lee	A+	1×	7/13	  GET
 Julia B	A	1×	7/13	  GET
 Emma Allen	B+	1×	10/13	  GET
 Jillian Hyman	A+	1×	9/13	  GET
 DeltaPeng	A+	1×	9/13	  GET
 Ben Wal	B	1×	6/13	  GET
 Michelle Holmes	A+	1×	10/13	  GET
 DoctorFluffy	A+	1×	10/13	  GET
 Csongor Kiss	A+	1×	7/13	  GET
 Kingilan3021	A-	1×	9/13	  GET
 Andrew Matthis	D+	1×	10/13	  GET
 Lowkey Lyesmith	A+	1×	9/13	  GET
 Dazednyx	A+	1×	6/13	  GET
 Jacquelyn Love	B	1×	4/13	  GET
 Kaatje	A	1×	9/13	  GET
 Shelia Blendy	A+	1×	10/13	  GET
 Alvaro Sierra	A+	1×	9/13	  GET
 Samuel Leung	A+	1×	5/13	  GET
 Drity	A+	1×	8/13	  GET
 Digisarz	B	1×	7/13	  GET
 Winchifrost	F	1×	7/13	  GET
 Shannon Dehne	A+	1×	13/13	  GET
 Alley Cat	A+	1×	9/13	  GET
 Flocci	C-	1×	4/13	  GET
 Cyroris	A+	1×	10/13	  GET
 Neonmobster_17039	A-	1×	2/13	  GET
 Quintin Hartman	A+	1×	12/13	  GET
 Philipm614	D	1×	4/13	  GET
