Accessed on Fri Oct 14 2016 16:09:04 GMT-0700 (PDT)
 
×

770 Owners Of Modest
All collectors with one or more of these.
COLLECTOR	TRADER
GRADE	# OWNED	
"ORIENTAL ERA-WOMEN'S BEAUTY"
COMPLETION
 Neonmobster_11430	A+	2×	12/13	  GET
 Desdinova	A+	3×	13/13	  GET
 Michael Tommerup	D+	2×	9/13	  GET
 husahusa	A+	2×	10/13	  GET
 Sid Maxwell	A+	7×	13/13	  GET
 Cory W.	C+	2×	13/13	  GET
 Dane Atticus Parker	F	2×	10/13	  GET
 yamaJYT	A+	2×	13/13	  GET
 Archcaster23	A-	3×	13/13	  GET
 David Stroble	A+	2×	10/13	  GET
 Shephered	A+	4×	13/13	  GET
 Shandee+Christopher Nis	A+	2×	13/13	  GET
 Kevin_zuners	A+	2×	13/13	  GET
 Phil	A+	2×	12/13	  GET
 Neonmobster_15215 Trade	A+	2×	12/13	  GET
 Jon Greene	A+	3×	13/13	  GET
 Alex	A+	2×	13/13	  GET
 RuyGDA	A+	2×	13/13	  GET
 Alison Wendy	A+	4×	13/13	  GET
 Pelvichan	A+	4×	12/13	  GET
 Gabriela Lopes	A+	2×	12/13	  GET
 Nathan	B	2×	12/13	  GET
 Shikzu	A+	2×	9/13	  GET
 Quatoes Wread	A+	2×	12/13	  GET
 Ktebee	A+	5×	12/13	  GET
 Navi	D+	2×	13/13	  GET
 Winson Goh	A+	2×	12/13	  GET
 Pudjiono_js	A	2×	12/13	  GET
 Karen Mack	A+	2×	13/13	  GET
 Heather	A+	2×	12/13	  GET
 Reallybored	A+	2×	13/13	  GET
 Alexx	A+	3×	11/13	  GET
 Misterdusk	A+	5×	13/13	  GET
 Nyang Hesatu	C+	3×	12/13	  GET
 Bre	A+	2×	11/13	  GET
 Darth Doom	A+	2×	12/13	  GET
 Setiadi Tjin	A	3×	13/13	  GET
 Brian Stevenson	A+	2×	12/13	  GET
 Albanice	A+	2×	12/13	  GET
 Elizabeth Leong	A+	4×	13/13	  GET
 Adam Tanouye	A+	4×	13/13	  GET
 Threezus Ashford	B	2×	11/13	  GET
 Gabriela Scott	A+	2×	13/13	  GET
 'Liung Hartono'	A+	3×	12/13	  GET
 Flanni Scarlet	A+	3×	13/13	  GET
 Good Man	A+	2×	12/13	  GET
 Emory Cash	B	2×	12/13	  GET
 Mystic Snail	A+	2×	13/13	  GET
 Giulia Degortes Caivano	A+	2×	13/13	  GET
 Jleigh5496	A+	2×	12/13	  GET
 Laila Pinto Alves	A+	2×	13/13	  GET
 Hedua Nyang	B	2×	12/13	  GET
 Sworly Worley	A+	3×	11/13	  GET
 Bargo Kaboot	A+	2×	10/13	  GET
 Keiko Watanabe	B+	2×	10/13	  GET
 Taryn Hecker	A+	2×	11/13	  GET
 Steve Gomez	A+	3×	12/13	  GET
 JB1127	A+	2×	13/13	  GET
 Alecsandra Elena	A+	3×	12/13	  GET
 Tanya Hales	A+	2×	13/13	  GET
 Velotariat	A+	2×	11/13	  GET
 Anneka Vasquez	B+	2×	11/13	  GET
 Fanfare	B	2×	12/13	  GET
 Sfijal	A+	2×	11/13	  GET
 Lyck_1021	C	2×	13/13	  GET
 Marcio Barrios	A+	2×	13/13	  GET
 Victor Vitiello Silva	A+	2×	12/13	  GET
 Nathsic	B-	4×	11/13	  GET
 Lilith Wells	A+	4×	11/13	  GET
 B B	A+	3×	12/13	  GET
 Alicia Arsenault	A+	2×	12/13	  GET
 Alice Liddell	A+	3×	11/13	  GET
 Claudia Tinúviel	A+	3×	11/13	  GET
 Morgana Harp	B	2×	9/13	  GET
 Ramon Cardoso	A+	3×	13/13	  GET
 Mawar Putri	C+	2×	13/13	  GET
 Dawn O'Brien	A+	2×	12/13	  GET
 Icecheetah	A+	2×	13/13	  GET
 Z	A+	2×	12/13	  GET
 AJ Esquin	D-	3×	10/13	  GET
 Celine Ko	A	3×	11/13	  GET
 Quintin Hartman	A+	4×	12/13	  GET
 Flahme	A+	2×	13/13	  GET
 Mike	D	2×	10/13	  GET
 Jared Hale	A+	2×	13/13	  GET
 Nick Barrett	A+	3×	13/13	  GET
 Forsaken Reaper	A+	3×	12/13	  GET
 Asher Baker	B+	2×	11/13	  GET
 Brumalisprae	A+	2×	13/13	  GET
 Demian	A+	2×	6/13	  GET
 Chuck4489	A+	2×	13/13	  GET
 Seitzanthony	A+	3×	10/13	  GET
 Loffel	A+	4×	13/13	  GET
 Tyler Anderson	A+	3×	12/13	  GET
 Winter Rose	A+	2×	13/13	  GET
 Ardy Bondoc	A+	2×	13/13	  GET
 Shelby Night	A+	2×	12/13	  GET
 Sydney._.huang	B+	2×	13/13	  GET
 Libra R	B	2×	11/13	  GET
 Josh Hinds	A+	3×	12/13	  GET
 Joseph Calangian	C	2×	9/13	  GET
 Emily Belnap	A	2×	11/13	  GET
 AnazenArt	A+	4×	13/13	  GET
 Zsuzsa Bányai	A+	2×	11/13	  GET
 Karla House Mcclain	A	2×	13/13	  GET
 Artisticcrystal12	F	2×	6/13	  GET
 Carter Townsend	A+	4×	12/13	  GET
 Jon D	A+	2×	12/13	  GET
 Kaylee the Whimsical	A+	2×	12/13	  GET
 Zyanya de la Rosa	B	2×	9/13	  GET
 Adropofbeauty	A+	2×	10/13	  GET
 Pin_acc	B+	2×	12/13	  GET
 Farisu	A+	4×	13/13	  GET
 Kelvin Tse	A+	2×	13/13	  GET
 Hasan.jawad1	A+	3×	12/13	  GET
 Tony Bolony	A+	3×	13/13	  GET
 Wasabee	A+	2×	13/13	  GET
 Yoshikuni Kakeru	A+	2×	11/13	  GET
 Marianna Piacesi	A+	2×	13/13	  GET
 Danilo Perin	A	2×	12/13	  GET
 Paola Casillas	A+	2×	13/13	  GET
 Ben Klein	B	3×	11/13	  GET
 Marco Nájera	A+	2×	13/13	  GET
 Layton	A+	2×	13/13	  GET
 Janetvonmurder	A+	2×	13/13	  GET
 Randyn David	A+	2×	12/13	  GET
 Sean Neprud	A+	2×	13/13	  GET
 Cheryl-Rae Beacham	F+	2×	5/13	  GET
 Nick Cipolla	A+	2×	13/13	  GET
 Devin	A+	4×	13/13	  GET
 Darkcvc	A+	3×	13/13	  GET
 Caleb Elder-Hall	A+	2×	13/13	  GET
 Gannert	B+	2×	10/13	  GET
 Bryan Paterson	A+	3×	13/13	  GET
 Randallpinkflyd	A+	2×	13/13	  GET
 Darthheisenberg	D-	2×	11/13	  GET
 Low Yi Ven	A	2×	13/13	  GET
 Bluebanana	A+	4×	11/13	  GET
 Renata Sayuri	A+	5×	11/13	  GET
 Leslie Guevara	A+	2×	11/13	  GET
 Chobits XD	B+	2×	11/13	  GET
 Lys	A+	2×	12/13	  GET
 Tim Beck	A+	2×	11/13	  GET
 Doowutchyalike	A+	2×	13/13	  GET
 Carolyn Klassen	A	2×	11/13	  GET
 Michael Bergmaier	A+	5×	13/13	  GET
 otakuwithnolife	A+	2×	12/13	  GET
 Matheus oliveira	C+	3×	12/13	  GET
 David	A	2×	11/13	  GET
 Cleanblade	A+	2×	13/13	  GET
 Emi	A+	2×	11/13	  GET
 Becky	A+	2×	11/13	  GET
 Cassandra Sobek	A+	3×	13/13	  GET
 Michel Ehrlich	A+	3×	13/13	  GET
 Mouseblast	A+	4×	13/13	  GET
 Carlos Torres	A+	3×	11/13	  GET
 Christopher Wheeler	A+	2×	11/13	  GET
 Vanillabliss	A+	8×	13/13	  GET
 Dimitris Nikitas	A+	3×	13/13	  GET
 Hxchip	A+	2×	11/13	  GET
 Luciano Franceschi	A+	3×	13/13	  GET
 Barbara Morales	A+	2×	12/13	  GET
 Sølvi Husby	A+	2×	13/13	  GET
 Da Ne	A	3×	12/13	  GET
 draconian Voltage	A+	2×	12/13	  GET
 Neonmobster_19855	B	2×	10/13	  GET
 Neonmobster_11625	A+	2×	12/13	  GET
 Ilse.aime	A	2×	12/13	  GET
 Kiran Khan	A+	9×	13/13	  GET
 Richard Cross	A+	2×	11/13	  GET
 Blackie Panthy	A	3×	13/13	  GET
 Marelle	A+	2×	11/13	  GET
 Sandra A.	A+	2×	12/13	  GET
 Josh	A+	2×	11/13	  GET
 Drew Leto	A+	3×	13/13	  GET
 J K	A+	5×	12/13	  GET
 David Chhuon	A+	2×	13/13	  GET
 Agraynel	A+	2×	13/13	  GET
 Rag Doll's Revenge	A+	2×	12/13	  GET
 eva marie	A+	3×	12/13	  GET
 Ryan Davis	A+	3×	13/13	  GET
 Lee Hylands	B+	2×	11/13	  GET
 Polly	A+	2×	11/13	  GET
 Intrepid	A+	5×	12/13	  GET
 Zephryl	A+	4×	13/13	  GET
 cdn_chickee	A-	2×	13/13	  GET
 Nav	A+	2×	13/13	  GET
 David Hoogland	A+	4×	13/13	  GET
 Reza Pahlevi	F+	1×	13/13	  GET
 Qazyn	A+	1×	11/13	  GET
 Bryan Holland Arts	A+	1×	11/13	  GET
 Giuliana Capobianco	C+	1×	10/13	  GET
 Lizzie~	B-	1×	13/13	  GET
 Wesley Boone	A+	1×	13/13	  GET
 RedLevi	A-	1×	11/13	  GET
 Jeddediah	A+	1×	12/13	  GET
 Jason Smith	A+	1×	10/13	  GET
 Neonmobster_2439	B-	1×	11/13	  GET
 Vlad Ciule	A+	1×	13/13	  GET
 Jocelyn Wilson	A+	1×	12/13	  GET
 Mike Logaz	A+	1×	10/13	  GET
 Ash-Marie Hernandez	A-	1×	8/13	  GET
 Lisette Tolxdorf	A+	1×	12/13	  GET
 Ben Williams	A	1×	11/13	  GET
 Geekchic77	B	1×	8/13	  GET
 Neonmobster_811	A+	1×	11/13	  GET
 Intotheforests	A+	1×	13/13	  GET
 Howling Ghostgirl	A+	1×	10/13	  GET
 FrostThePsycho	A+	1×	11/13	  GET
 Nicole Borchers	B-	1×	9/13	  GET
 Victor Arzola	A+	1×	10/13	  GET
 Bi-Rabittoh	C	1×	12/13	  GET
 Amanda Petzak	A+	1×	11/13	  GET
 Sarah McMullan	A+	1×	13/13	  GET
 alunia6191	A+	1×	10/13	  GET
 Normacrow	D+	1×	10/13	  GET
 Mihai Balan	A+	1×	13/13	  GET
 Rachel Sanpaka	B-	1×	3/13	  GET
 Matthew Yu	F+	1×	5/13	  GET
 Hey You're Cool	C+	1×	12/13	  GET
 Eldritchomen	D+	1×	9/13	  GET
 Stereo	A	1×	11/13	  GET
 juju 98	A	1×	11/13	  GET
 Verne Ahyong	A+	1×	13/13	  GET
 Zenara Panadian	A+	1×	11/13	  GET
 Pete Langlois	A+	1×	9/13	  GET
 Alraune	C+	1×	11/13	  GET
 Ashley Brim	A+	1×	13/13	  GET
 Jim Todd	A+	1×	9/13	  GET
 Hane Renard	A+	1×	13/13	  GET
 Alejandro Serrano	A+	1×	13/13	  GET
 Fiona Scott	A+	1×	12/13	  GET
 Sarah Murphy	A+	1×	7/13	  GET
 batiskafo	A+	1×	12/13	  GET
 Paola Fernandes	B	1×	7/13	  GET
 Rachilli	A+	1×	11/13	  GET
 Schultz1077	A+	1×	12/13	  GET
 LittleMonster97	A-	1×	13/13	  GET
 Sachiko	A+	1×	10/13	  GET
 David	A	1×	11/13	  GET
 bs angel	A+	1×	13/13	  GET
 Abbie V.	A+	1×	12/13	  GET
 KucingKecil	A-	1×	12/13	  GET
 Barney Shimp	A+	1×	11/13	  GET
 Battlekingomegaman	A+	1×	11/13	  GET
 Mike	A+	1×	9/13	  GET
 Derek Wellington	A+	1×	10/13	  GET
 Jerson Ambion	A-	1×	12/13	  GET
 Chris Held	A+	1×	12/13	  GET
 Vaelyx	A-	1×	13/13	  GET
 Animeartist62	A+	1×	12/13	  GET
 Corramel	A+	1×	13/13	  GET
 Bazameee	B	1×	10/13	  GET
 otter	A+	1×	10/13	  GET
 Bekki Bedow	A+	1×	13/13	  GET
 Eugenia Romero	A+	1×	8/13	  GET
 Aislinn Woodward	A	1×	11/13	  GET
 Dracken	A+	1×	11/13	  GET
 Joe Worthington	B	1×	11/13	  GET
 Jackjackatomatom	C	1×	9/13	  GET
 Matthew Toyama	A+	1×	13/13	  GET
 Eyliana	A+	1×	13/13	  GET
 pronto_pup	A+	1×	11/13	  GET
 Demica Wood	B+	1×	10/13	  GET
 Kashimma Danner	A+	1×	11/13	  GET
 Allen Tran	A+	1×	13/13	  GET
 Hiccups4days	B-	1×	7/13	  GET
 Lisa Bugden	A+	1×	11/13	  GET
 Vortoxy	A	1×	10/13	  GET
 Azuresimkin	A+	1×	13/13	  GET
 Helen Velich	A+	1×	11/13	  GET
 Cryptec	A	1×	13/13	  GET
 YoshtheGuardian	A+	1×	11/13	  GET
 Jekajohn	A+	1×	13/13	  GET
 Max Dusman	A+	1×	13/13	  GET
 Marc	A+	1×	11/13	  GET
 Rosemary Foley	A+	1×	13/13	  GET
 Nora	A	1×	10/13	  GET
 Jeffoids	A+	1×	10/13	  GET
 TD G	B	1×	10/13	  GET
 Arlain	A+	1×	13/13	  GET
 Jerome	A	1×	9/13	  GET
 Daniyel Mills	A+	1×	13/13	  GET
 Erik Derr	A+	1×	13/13	  GET
 Linivy	A+	1×	10/13	  GET
 jilllenotjilly -_-	A	1×	10/13	  GET
 Giggle Monster	A+	1×	11/13	  GET
 KyloRenKnight	A+	1×	13/13	  GET
 Shari F	A+	1×	11/13	  GET
 Thechair456	D	1×	2/13	  GET
 DM Domini	A-	1×	11/13	  GET
 Florian Fekkes	A+	1×	13/13	  GET
 Heather Moxley	A	1×	8/13	  GET
 Firstiand Chaniago	A+	1×	12/13	  GET
 Prinnyhero	A-	1×	10/13	  GET
 Asces05	A+	1×	13/13	  GET
 Josiah DePaoli	A+	1×	13/13	  GET
 Fion Fox	A+	1×	13/13	  GET
 Redondo1324	B+	1×	9/13	  GET
 Ezzerhoden	A+	1×	11/13	  GET
 Little Elfche	A+	1×	13/13	  GET
 Astig	C+	1×	9/13	  GET
 Tami CM	A	1×	13/13	  GET
 Loki	D+	1×	10/13	  GET
 Daniela Paglia	A+	1×	13/13	  GET
 Dinosaur Mermaid	A+	1×	11/13	  GET
 shiny beast of thought	A+	1×	12/13	  GET
 Scoutboy	A+	1×	11/13	  GET
 George Y. Lee	A+	1×	11/13	  GET
 Jordan	A+	1×	13/13	  GET
 ada	A+	1×	12/13	  GET
 Elizabeth Tapia	C+	1×	8/13	  GET
 Magnaprawn	D+	1×	8/13	  GET
 Bluehawaii	A+	1×	13/13	  GET
 Tom Candy	A+	1×	2/13	  GET
 Abigail Holloway	A+	1×	11/13	  GET
 Davidhj.net	B	1×	12/13	  GET
 Cece Donuts	A+	1×	12/13	  GET
 Nico Hart	A	1×	11/13	  GET
 S K	A	1×	11/13	  GET
 Maria Coker	A-	1×	13/13	  GET
 Robin Bond	A+	1×	13/13	  GET
 Nick Sampson	B-	1×	12/13	  GET
 Aaron Baker	A+	1×	10/13	  GET
 Ray Lonsdale	A+	1×	11/13	  GET
 Richard Miller	A+	1×	12/13	  GET
 David Shingles	A+	1×	11/13	  GET
 Jugo	A	1×	10/13	  GET
 hulotte	A	1×	13/13	  GET
 Nikki Nonya Beeswax	A	1×	10/13	  GET
 Oana Maria Vlad	A+	1×	13/13	  GET
 Markoi	B-	1×	9/13	  GET
 Zenom24	A	1×	10/13	  GET
 T N	A+	1×	10/13	  GET
 Jaiie Ralen	A+	1×	11/13	  GET
 D.lady	A+	1×	12/13	  GET
 Speedygirl	B+	1×	11/13	  GET
 dedChar	A+	1×	12/13	  GET
 Zxion02	A	1×	11/13	  GET
 Larry Wheeler	C+	1×	13/13	  GET
 Dung Mücke	A+	1×	11/13	  GET
 Heidi Rakow	C+	1×	11/13	  GET
 Natasha Chay	A+	1×	12/13	  GET
 Butternutloaf	A+	1×	12/13	  GET
 Jenn	A+	1×	12/13	  GET
 Eduardo Jimenez	A+	1×	13/13	  GET
 Twiggleman	A	1×	13/13	  GET
 Lene Vau	A+	1×	8/13	  GET
 Andreea Danielescu	A+	1×	13/13	  GET
 Stapio	B+	1×	9/13	  GET
 Emma Hryniewicz	A+	1×	7/13	  GET
 Sare Sai	A+	1×	11/13	  GET
 Ms Meow	A+	1×	11/13	  GET
 Alyssa Iris	A+	1×	11/13	  GET
 Leann Thieu	A+	1×	10/13	  GET
 K2T C.	C+	1×	13/13	  GET
 Claude Goeminne	A+	1×	11/13	  GET
 Nico Cherrywood	A	1×	12/13	  GET
 Raissa Andrade	B+	1×	13/13	  GET
 Rsquared300	A+	1×	11/13	  GET
 pong0814	A+	1×	13/13	  GET
 Rica Azmaria	A+	1×	12/13	  GET
 Jeannine Bolhouse	A+	1×	11/13	  GET
 Eriss	A+	1×	13/13	  GET
 Kayla	A	1×	12/13	  GET
 Noelmidgett	A-	1×	8/13	  GET
 Darryl	A-	1×	10/13	  GET
 Irishgirloriginal	A-	1×	13/13	  GET
 Justine Jackson	A+	1×	7/13	  GET
 Marcos Anguiano	A	1×	10/13	  GET
 Setep AnkhAtum	F	1×	7/13	  GET
 Steph Talerico	A+	1×	12/13	  GET
 Lina H. Droste	A+	1×	13/13	  GET
 Gesyca	A+	1×	12/13	  GET
 Yi Tang	B+	1×	12/13	  GET
 Inka Jesanra	B	1×	9/13	  GET
 Jaakpartel	A+	1×	11/13	  GET
 Huntakilla	A+	1×	11/13	  GET
 Davidp	A+	1×	12/13	  GET
 Hamish Larkman	A+	1×	13/13	  GET
 Nas Vwj	D	1×	11/13	  GET
 Mephisto	A+	1×	12/13	  GET
 Fryingpansam93	A+	1×	13/13	  GET
 jetrocker7	B	1×	7/13	  GET
 Megan wants the old NeonMob back	A+	1×	13/13	  GET
 Dave Leach	A+	1×	11/13	  GET
 Shayne De Dios	A	1×	13/13	  GET
 Skylar Rose	A+	1×	13/13	  GET
 Arang9	A	1×	10/13	  GET
 Kesart	A+	1×	4/13	  GET
 Kimberly Aumada	A+	1×	12/13	  GET
 Candoh	B-	1×	13/13	  GET
 Sera Wings	A+	1×	11/13	  GET
 David Jimenez	B	1×	11/13	  GET
 Sheridan Park	A+	1×	13/13	  GET
 Mythicferret	A+	1×	10/13	  GET
 Cramer	A+	1×	13/13	  GET
 Dains	A+	1×	12/13	  GET
 Raikua	A+	1×	13/13	  GET
 Ericka Smith	A+	1×	11/13	  GET
 Rosestar55	A+	1×	13/13	  GET
 David Agapiou	A+	1×	12/13	  GET
 Gavin	A+	1×	13/13	  GET
 Aware	A+	1×	11/13	  GET
 Shyyyvee	A+	1×	11/13	  GET
 Kieran Gunn	A+	1×	13/13	  GET
 hching	B+	1×	13/13	  GET
 Johannah Navallo	A+	1×	11/13	  GET
 Ace Rocker	A+	1×	11/13	  GET
 Nina	A+	1×	8/13	  GET
 Wonderinglolita	A+	1×	13/13	  GET
 D N	A+	1×	13/13	  GET
 Bee	B	1×	12/13	  GET
 DMPL	A+	1×	9/13	  GET
 MK Kim	B-	1×	7/13	  GET
 Oliver Sparkes	A+	1×	13/13	  GET
 Madalina Aldea	A+	1×	13/13	  GET
 Justpeachy	A+	1×	11/13	  GET
 Franco Hormazabal Labbe	B-	1×	13/13	  GET
 Flyingbunnyninja	B-	1×	7/13	  GET
 Demonic_rain_	A+	1×	12/13	  GET
 Richard Billings	C	1×	10/13	  GET
 Aaron Zhao	C-	1×	10/13	  GET
 Jazen Chan	B-	1×	13/13	  GET
 Cynthia	A-	1×	11/13	  GET
 Luraae	A+	1×	11/13	  GET
 KeithB	A+	1×	12/13	  GET
 Robbsterklaw	A+	1×	11/13	  GET
 Shareece Tatum	A+	1×	12/13	  GET
 Cboy0512	C-	1×	12/13	  GET
 Whitney	A+	1×	8/13	  GET
 Riél Shadowveil	B+	1×	12/13	  GET
 Krystol Ruiz	A+	1×	7/13	  GET
 Abi Texidor Garcia	B	1×	10/13	  GET
 Sean	A	1×	10/13	  GET
 Jeanythekitty	A+	1×	13/13	  GET
 Rajmund Nagy	A+	1×	13/13	  GET
 Aliensmileyface	A+	1×	11/13	  GET
 Janetmartzero	A+	1×	10/13	  GET
 Karen Elliott	A+	1×	11/13	  GET
 Onig Apaz	A+	1×	12/13	  GET
 Renegade Fruitloop	A+	1×	12/13	  GET
 Brad Hoffman	A+	1×	2/13	  GET
 Phelix	A	1×	13/13	  GET
 Quentin Falgas	A+	1×	11/13	  GET
 Uriel_wind	C	1×	6/13	  GET
 Shelia Blendy	A+	1×	10/13	  GET
 Boffadeez	A+	1×	13/13	  GET
 Ipocalypse	A+	1×	13/13	  GET
 Eric Liu	A+	1×	13/13	  GET
 Elyse B	A+	1×	13/13	  GET
 Ana	A+	1×	13/13	  GET
 Jennifer Ritz	A+	1×	10/13	  GET
 Max Woo	A	1×	10/13	  GET
 Zax G	A+	1×	13/13	  GET
 Alex Bat	A+	1×	10/13	  GET
 A Early	A+	1×	8/13	  GET
 Jkliew	C+	1×	13/13	  GET
 Magarthryx	A+	1×	10/13	  GET
 Julie Gooch	A+	1×	10/13	  GET
 OfraJaws	A+	1×	11/13	  GET
 Kristina Wideman	A+	1×	11/13	  GET
 Melanie Worrall	A+	1×	11/13	  GET
 Neonmobster_11554	C	1×	11/13	  GET
 Maureen-jay Balanay	A+	1×	11/13	  GET
 Aria DuFreak	C+	1×	12/13	  GET
 Lilylove	B	1×	11/13	  GET
 Shirlailai	A+	1×	11/13	  GET
 Leak	A+	1×	13/13	  GET
 Tiger Monkey	A+	1×	13/13	  GET
 Jason Rawls	A+	1×	13/13	  GET
 Yezi	C-	1×	11/13	  GET
 Ribena	A+	1×	13/13	  GET
 Arthur.cuellar99	A	1×	9/13	  GET
 Silverblazblue	A+	1×	13/13	  GET
 Shea Donato	A+	1×	13/13	  GET
 Ron Martin	A+	1×	11/13	  GET
 Greenfaery	A+	1×	12/13	  GET
 Christine	A+	1×	11/13	  GET
 Katrina Keller	A	1×	12/13	  GET
 Yasin Günenç	A+	1×	11/13	  GET
 Jesse Goll	A+	1×	13/13	  GET
 snoot	A+	1×	12/13	  GET
 Mrkr Trn	A+	1×	12/13	  GET
 Deathtotheweird	A+	1×	12/13	  GET
 Kylieshepard	B-	1×	10/13	  GET
 Brianwolf	A+	1×	12/13	  GET
 Glenn Blanza	A+	1×	13/13	  GET
 Christopher Sampson	A+	1×	13/13	  GET
 Colin McNeil	A-	1×	9/13	  GET
 Yarrum	A+	1×	13/13	  GET
 Sltheringirl92	A+	1×	13/13	  GET
 Richard Grillotti	A	1×	11/13	  GET
 Megan Schumacher	A+	1×	12/13	  GET
 Csongor Kiss	A+	1×	7/13	  GET
 Neonmobster_15471	C-	1×	5/13	  GET
 Aline Schulz Realino Lima	B+	1×	12/13	  GET
 Bianca Huayamabe	A+	1×	11/13	  GET
 Gerettet	A+	1×	13/13	  GET
 Kenny F	A+	1×	13/13	  GET
 Eulenlied	A+	1×	13/13	  GET
 Vanchatto	B-	1×	7/13	  GET
 SnowBear	A+	1×	13/13	  GET
 Eileen McMahon	A-	1×	11/13	  GET
 Chie	A	1×	13/13	  GET
 Sana	A+	1×	13/13	  GET
 Jvmagicman	A	1×	10/13	  GET
 Brandon Hyman	A+	1×	10/13	  GET
 Art Star	A+	1×	10/13	  GET
 Julia Notkina	A	1×	13/13	  GET
 Istanyou	B+	1×	11/13	  GET
 Kiq005	B-	1×	11/13	  GET
 Niki	A+	1×	13/13	  GET
 Karen Ramsey	A+	1×	13/13	  GET
 Saoirse Reddin	B	1×	12/13	  GET
 Chris LeDoux	A+	1×	13/13	  GET
 Iskkdg	A+	1×	10/13	  GET
 Dindeen Jaro	B-	1×	12/13	  GET
 Hobby Cards	A+	1×	13/13	  GET
 Marie.lool	A+	1×	11/13	  GET
 Tom Van Damme	A+	1×	11/13	  GET
 Gabriel Guimarães	B	1×	10/13	  GET
 Dragon Mist	A+	1×	13/13	  GET
 Ray Ross	A+	1×	11/13	  GET
 Darkmoon_dancer	A+	1×	12/13	  GET
 Webles87	A+	1×	12/13	  GET
 Neonmobster_12467	A+	1×	10/13	  GET
 Melanie Easterbrook	A	1×	13/13	  GET
 Kaii	A+	1×	11/13	  GET
 Ddixon68	A+	1×	13/13	  GET
 Emily	C	1×	8/13	  GET
 Jana	A+	1×	11/13	  GET
 Adam Sheffer	A+	1×	13/13	  GET
 Patricia Sung	A+	1×	12/13	  GET
 Capt_Lion	A+	1×	13/13	  GET
 Rue	A+	1×	9/13	  GET
 Sébastien D.	A+	1×	13/13	  GET
 Amaterasu Cain	C-	1×	10/13	  GET
 Milena Romaniuk	A+	1×	13/13	  GET
 Yumekitsune	B-	1×	9/13	  GET
 Ryan Joshi	B+	1×	12/13	  GET
 Gordoncarnes	A	1×	5/13	  GET
 Virginia "Magnolia" Pratcher and the MissOldNeonmob Hallows	A+	1×	10/13	  GET
 Waldo Cervantes	A+	1×	13/13	  GET
 yiyang gu	D	1×	12/13	  GET
 Rookiespoiler	B	1×	8/13	  GET
 Robby Miller	A+	1×	10/13	  GET
 Malinda Sutherland	A+	1×	9/13	  GET
 Doc Whooves	C-	1×	5/13	  GET
 Tarielen Veritas	A+	1×	11/13	  GET
 Veronica	D+	1×	11/13	  GET
 Kenth Leesha	A+	1×	11/13	  GET
 Child's Heart	A+	1×	13/13	  GET
 Jazzy	A+	1×	12/13	  GET
 James Cats	A	1×	11/13	  GET
 Stelliferous	A+	1×	10/13	  GET
 Moonfluff	A+	1×	12/13	  GET
 Shannon Dehne	A+	1×	13/13	  GET
 Rian Perez	A+	1×	13/13	  GET
 Haku _	A+	1×	13/13	  GET
 Diana805	A	1×	11/13	  GET
 M.	A+	1×	12/13	  GET
 J B	A+	1×	13/13	  GET
 Arianne Montecillo	B	1×	11/13	  GET
 Charles Atkinson	A+	1×	12/13	  GET
 Fae	A+	1×	11/13	  GET
 Hope Bowman	A+	1×	11/13	  GET
 Blakestapleton22	A+	1×	11/13	  GET
 Suseq	A	1×	11/13	  GET
 Fabled3000	A+	1×	13/13	  GET
 Jwhite810	A+	1×	10/13	  GET
 Lucasmehringer4	A+	1×	10/13	  GET
 Beanbear24	A	1×	13/13	  GET
 Shannon Merp	A-	1×	10/13	  GET
 Hosta	A	1×	11/13	  GET
 Cheszali Erestain	A+	1×	12/13	  GET
 Licc	B	1×	10/13	  GET
 N3W7	A-	1×	12/13	  GET
 Jeff Helton	A+	1×	13/13	  GET
 Autumn Miller	A+	1×	11/13	  GET
 DemonsWrath	A+	1×	11/13	  GET
 Skrimply	C-	1×	7/13	  GET
 Acid	A+	1×	10/13	  GET
 Mtzdiana	A-	1×	11/13	  GET
 Brianc231	A+	1×	11/13	  GET
 Apple	A-	1×	10/13	  GET
 Aza	A+	1×	13/13	  GET
 Ayanhill25	A+	1×	13/13	  GET
 Debra T	A+	1×	11/13	  GET
 TNT Tiger	A+	1×	13/13	  GET
 Annelise Knoot	A+	1×	12/13	  GET
 Ari	A+	1×	11/13	  GET
 Amanda	B-	1×	6/13	  GET
 Hayley	A+	1×	11/13	  GET
 Rulerofthepotatoes	A+	1×	12/13	  GET
 Betsy Harper	C	1×	8/13	  GET
 Mila Theodin	A+	1×	12/13	  GET
 DJ Jones	A+	1×	10/13	  GET
 Jose Martinez	B+	1×	10/13	  GET
 Akiane	B	1×	10/13	  GET
 Ajna Onhumies	A-	1×	12/13	  GET
 Andrew Phillips	A	1×	12/13	  GET
 Failure Face	A+	1×	10/13	  GET
 Katie	A+	1×	10/13	  GET
 Jamey Shelby	A+	1×	11/13	  GET
 Lledoux99	B+	1×	12/13	  GET
 Dixon Vew Lim	A+	1×	13/13	  GET
 Koyako	A+	1×	11/13	  GET
 Nayrz	A+	1×	10/13	  GET
 Kevin Henke	A+	1×	13/13	  GET
 David.htc.leaco	A-	1×	10/13	  GET
 Simforianus Agustian	A+	1×	12/13	  GET
 Firez Cisneros Alvarado	A+	1×	9/13	  GET
 Janie Tolero	A+	1×	9/13	  GET
 NordicTurtle	A+	1×	13/13	  GET
 Brenda	A+	1×	11/13	  GET
 Blackroses	A-	1×	12/13	  GET
 Shade20xx	A+	1×	13/13	  GET
 Great Ninja	A+	1×	13/13	  GET
 Kim_s_walker	A+	1×	11/13	  GET
 Souls Haven	A+	1×	13/13	  GET
 Kenny Tan	A-	1×	13/13	  GET
 Richie S	A+	1×	11/13	  GET
 Ryanjacobs464	B+	1×	10/13	  GET
 Barb Ngai	A+	1×	11/13	  GET
 Popshox	A+	1×	13/13	  GET
 cecilia barbosa	A+	1×	13/13	  GET
 Alfonso Díaz	A+	1×	10/13	  GET
 Natasha Peck	A+	1×	10/13	  GET
 Neonmobster_11955	A+	1×	12/13	  GET
 Hakaru Muromachi	A+	1×	11/13	  GET
 Victoria Vasquez	C+	1×	10/13	  GET
 Chris	B	1×	12/13	  GET
 Mark Jimenez	A+	1×	12/13	  GET
 James McLeod	A+	1×	12/13	  GET
 Lena	A+	1×	13/13	  GET
 Kota Wolfe	A	1×	8/13	  GET
 Qilin	B-	1×	10/13	  GET
 Dan Themadhatter	A+	1×	12/13	  GET
 Breeze Canyon	B	1×	10/13	  GET
 Raychapman	A+	1×	11/13	  GET
 Ahreen Kaye Valenzuela	A+	1×	13/13	  GET
 Garrett	A+	1×	12/13	  GET
 Giulia Cavallari	B+	1×	13/13	  GET
 Kat Yuki	A+	1×	11/13	  GET
 Paradox	B+	1×	10/13	  GET
 Anna Monroe	A+	1×	10/13	  GET
 Terrasa Ulm	B-	1×	9/13	  GET
 Melissa Lawver	A+	1×	11/13	  GET
 Joshua Blackstone	A+	1×	13/13	  GET
 Britty	A+	1×	12/13	  GET
 Asyouwish	B-	1×	10/13	  GET
 Ulossio	C-	1×	12/13	  GET
 Gregu	A+	1×	11/13	  GET
 Zosia Blizzard	B	1×	10/13	  GET
 Chou Abd	A+	1×	13/13	  GET
 Nathan Mekola	B	1×	5/13	  GET
 Leah Froehle	A+	1×	12/13	  GET
 Nellephant	A+	1×	11/13	  GET
 Cyroris	A+	1×	10/13	  GET
 Artemis Cho	A	1×	11/13	  GET
 Katie Redmon	A+	1×	13/13	  GET
 Jv1c3	A+	1×	11/13	  GET
 Ethel Aguilar Luis	A+	1×	12/13	  GET
 Lilyat221b	A-	1×	10/13	  GET
 Jewlz Robertson	A+	1×	13/13	  GET
 Tonyhamilt88	A+	1×	10/13	  GET
 Velin	A	1×	11/13	  GET
 Nkonye Campbell	A+	1×	11/13	  GET
 Ryan	F+	1×	6/13	  GET
 Partcloud	A+	1×	9/13	  GET
 rosa beautiful	A+	1×	10/13	  GET
 Scarlettsiren	A+	1×	13/13	  GET
 Ana Flávia Coetti	B-	1×	12/13	  GET
 Zypiris	A+	1×	11/13	  GET
 James Jang	A+	1×	7/13	  GET
 Diego Camara Lopes	A+	1×	13/13	  GET
 Sachi	A+	1×	8/13	  GET
 Jessica Gaytan	A+	1×	11/13	  GET
 (The) Magic Biologist	A	1×	9/13	  GET
 Cyrion Cynin	A+	1×	11/13	  GET
 Geoffrey Reesor	A+	1×	9/13	  GET
 Cory Ruda	A+	1×	13/13	  GET
 Jg21	D-	1×	11/13	  GET
 Michael Harbin	A+	1×	11/13	  GET
 Dramaqueen09	A+	1×	12/13	  GET
 Lea	A+	1×	13/13	  GET
 JordanSenpai	A+	1×	11/13	  GET
 etcetera	A+	1×	11/13	  GET
 Neonmobsterfool	A+	1×	13/13	  GET
 Brier Hyland	B	1×	5/13	  GET
 Altfb00	B	1×	10/13	  GET
 Kristoffergoodman Hammoda	A	1×	11/13	  GET
 Macarena Ayelén	A	1×	12/13	  GET
 Jessica Seargeant	A+	1×	13/13	  GET
 Tielk	B+	1×	11/13	  GET
 River	A+	1×	11/13	  GET
 Luci Kins	A-	1×	12/13	  GET
 Chelsie Burgess	B+	1×	9/13	  GET
 M.dominguez	A+	1×	8/13	  GET
 Neonmobster_17496	A+	1×	12/13	  GET
 Fakehero	C-	1×	10/13	  GET
 Livefox	A	1×	12/13	  GET
 Luke Gibson	A+	1×	13/13	  GET
 Cooper	A+	1×	11/13	  GET
 Tjdisco	A+	1×	13/13	  GET
 B_h_c	A+	1×	12/13	  GET
 Kiki Redfox	C-	1×	9/13	  GET
 Shozo	B-	1×	5/13	  GET
 Sophie Degroote	A	1×	12/13	  GET
 Roxygirlx	A	1×	11/13	  GET
 Neonmobster_4428	A	1×	10/13	  GET
 Neonmobster_9982	A	1×	12/13	  GET
 Sharoontheraccoon	A+	1×	13/13	  GET
 Esmi	A+	1×	12/13	  GET
 David Poulton	A+	1×	13/13	  GET
 Boon Chuan Lim	A+	1×	13/13	  GET
 Catherine	A+	1×	12/13	  GET
 Annthelast	A+	1×	13/13	  GET
 Lyra	A+	1×	12/13	  GET
 Cairan	A+	1×	13/13	  GET
 Mcsquiggins	A+	1×	13/13	  GET
 Tien Lam	A+	1×	12/13	  GET
 Mel L	A+	1×	13/13	  GET
 Jt Caddy	B+	1×	11/13	  GET
 Michael H	A+	1×	13/13	  GET
 Goldenace	A+	1×	9/13	  GET
 Mack Caddy	A+	1×	13/13	  GET
 Filletfish	A+	1×	13/13	  GET
 Redpanda109	A+	1×	9/13	  GET
 Lisa Lyle	A+	1×	13/13	  GET
 Jedi_Brutus	A	1×	13/13	  GET
 Sean Burdick	A	1×	11/13	  GET
 Jessica McCollin	A+	1×	12/13	  GET
 Ideota	A+	1×	10/13	  GET
 Rachel McCullough	A+	1×	12/13	  GET
 Rebeldog	A+	1×	10/13	  GET
 Yushenglim	B+	1×	10/13	  GET
 Scott Dyer	A+	1×	12/13	  GET
 Gogs	A+	1×	12/13	  GET
 Belovedmuerto	A	1×	8/13	  GET
 Alonso Medina	B	1×	11/13	  GET
 IdoNotSayBlehBlehBleh	A+	1×	10/13	  GET
 Teddy Pendergast	A+	1×	13/13	  GET
 Planet.xiv	A+	1×	13/13	  GET
 Iliana Petrova (Rabbit)	A+	1×	12/13	  GET
 Amos The Fanboy	A+	1×	10/13	  GET
 Iancastle172	C+	1×	11/13	  GET
 Davy Shirley	A+	1×	13/13	  GET
 Zoila NEEDS more ERs.	A+	1×	10/13	  GET
 Tenxia PROTESTS NEONMOB CHANGES!!!!	A+	1×	13/13	  GET
 Shawna Aponte	A+	1×	13/13	  GET
 Michelle Holmes	A+	1×	10/13	  GET
 Andreeacatalina	A+	1×	11/13	  GET
 Ca_franciscoreyes	D-	1×	6/13	  GET
 Red	A+	1×	12/13	  GET
 Maluavatar95	B-	1×	11/13	  GET
 Ella	B	1×	8/13	  GET
 Ryan McCarthy	A+	1×	13/13	  GET
 The Paper Man	A+	1×	10/13	  GET
 Mindgvmes	B+	1×	7/13	  GET
 Anonymous User	A+	1×	11/13	  GET
 Weilin Liao	A+	1×	11/13	  GET
 Bowen Allen	C-	1×	9/13	  GET
 Malcon Serrano	A+	1×	7/13	  GET
 Enfuegopies Cyugy	A+	1×	11/13	  GET
 Drqb	A+	1×	10/13	  GET
 Krisztina Kurucsai	A+	1×	13/13	  GET
 Travis.k	A+	1×	10/13	  GET
 Brian Kalish Jr.	A+	1×	11/13	  GET
