Accessed on Fri Oct 14 2016 16:12:13 GMT-0700 (PDT)
 
×

43 Owners Of Autumn
All collectors with one or more of these.
COLLECTOR	TRADER
GRADE	# OWNED	
"ORIENTAL ERA-WOMEN'S BEAUTY"
COMPLETION
 Boffadeez	A+	1×	13/13	  GET
 Dawn O'Brien	A+	1×	12/13	  GET
 Intrepid	A+	1×	12/13	  GET
 Low Yi Ven	A	1×	13/13	  GET
 Ben Kalman	A+	1×	10/13	  GET
 Little Elfche	A+	1×	13/13	  GET
 Extreme Collector	D	1×	5/13	  GET
 K2T C.	C+	1×	13/13	  GET
 Rian Perez	A+	1×	13/13	  GET
 Tony Bolony	A+	1×	13/13	  GET
 hching	B+	1×	13/13	  GET
 Alex Castañeda	A+	1×	10/13	  GET
 Megan wants the old NeonMob back	A+	1×	13/13	  GET
 jetrocker7	B	1×	7/13	  GET
 Misterdusk	A+	1×	13/13	  GET
 Cynthia Lam	C-	1×	9/13	  GET
 Janetvonmurder	A+	1×	13/13	  GET
 Michael Bergmaier	A+	1×	13/13	  GET
 Alex Kurai	B	1×	10/13	  GET
 Alison Wendy	A+	1×	13/13	  GET
 DemonsWrath	A+	1×	11/13	  GET
 Nathan	B	1×	12/13	  GET
 Ddixon68	A+	1×	13/13	  GET
 Giulia Degortes Caivano	A+	1×	13/13	  GET
 Melanie Worrall	A+	1×	11/13	  GET
 Jessica Seargeant	A+	1×	13/13	  GET
 Winson	B-	1×	12/13	  GET
 Mary Jensen	A+	1×	8/13	  GET
 Peter Santha	A+	1×	11/13	  GET
 Scott Dyer	A+	1×	12/13	  GET
 Mawar Putri	C+	1×	13/13	  GET
 Good Man	A+	1×	12/13	  GET
 Vanillabliss	A+	1×	13/13	  GET
 Dragon Mist	A+	1×	13/13	  GET
 Simforianus Agustian	A+	1×	12/13	  GET
 Cecilia Oñederra	A+	1×	11/13	  GET
 Shephered	A+	1×	13/13	  GET
 Jon D	A+	1×	12/13	  GET
 Sally Tseng	A+	1×	11/13	  GET
 Devin	A+	1×	13/13	  GET
 Brumalisprae	A+	1×	13/13	  GET
 wild_tardis	A+	1×	5/13	  GET
 Elizabeth Leong	A+	1×	13/13	  GET
