Accessed on Fri Oct 14 2016 16:15:59 GMT-0700 (PDT)
 
×

37 Owners Of Spirit sketch
All collectors with one or more of these.
COLLECTOR	TRADER
GRADE	# OWNED	
"ORIENTAL ERA-WOMEN'S BEAUTY"
COMPLETION
 Winter Rose	A+	1×	13/13	  GET
 Jon Greene	A+	1×	13/13	  GET
 Veronicafalls	A+	1×	12/13	  GET
 Elizabeth Leong	A+	1×	13/13	  GET
 Kristen Murphy	C	1×	7/13	  GET
 Phil	A+	1×	12/13	  GET
 Gabriela Scott	A+	1×	13/13	  GET
 Gdiii	B+	1×	11/13	  GET
 Manda Schumacher	A-	1×	9/13	  GET
 Nkeithart	A+	1×	5/13	  GET
 'Liung Hartono'	A+	1×	12/13	  GET
 Aetiusreloaded	D	1×	3/13	  GET
 K2T C.	C+	1×	13/13	  GET
 Jeff Helton	A+	1×	13/13	  GET
 Rica Azmaria	A+	1×	12/13	  GET
 Zephryl	A+	1×	13/13	  GET
 Fernando Henrique	A+	1×	10/13	  GET
 Navi	D+	1×	13/13	  GET
 Ahreen Kaye Valenzuela	A+	1×	13/13	  GET
 Ana	A+	1×	13/13	  GET
 Zenom24	A	1×	10/13	  GET
 Sean	A	1×	10/13	  GET
 Melanie Worrall	A+	1×	11/13	  GET
 Filmsamurai	A+	1×	9/13	  GET
 Ktebee	A+	1×	12/13	  GET
 Alexander Dekker	A+	1×	9/13	  GET
 Shandee+Christopher Nis	A+	1×	13/13	  GET
 Boon Chuan Lim	A+	1×	13/13	  GET
 Yoshii	B+	1×	11/13	  GET
 Flahme	A+	1×	13/13	  GET
 Andrew Phillips	A	1×	12/13	  GET
 Cairan	A+	1×	13/13	  GET
 Cyrion Cynin	A+	1×	11/13	  GET
 Janegatsby	A+	1×	8/13	  GET
 Christine	A+	1×	11/13	  GET
 Vanillabliss	A+	1×	13/13	  GET
 Jg21	D-	1×	11/13	  GET
