Accessed on Fri Oct 14 2016 16:10:32 GMT-0700 (PDT)
 
×

478 Owners Of Mysterious
All collectors with one or more of these.
COLLECTOR	TRADER
GRADE	# OWNED	
"ORIENTAL ERA-WOMEN'S BEAUTY"
COMPLETION
 Setiadi Tjin	A	2×	13/13	  GET
 Cassandra Sobek	A+	2×	13/13	  GET
 Devin	A+	3×	13/13	  GET
 Nick Cipolla	A+	2×	13/13	  GET
 TNT Tiger	A+	2×	13/13	  GET
 Erick Martinez	B+	2×	11/13	  GET
 Navi	D+	3×	13/13	  GET
 Frenchdavid51	F	3×	8/13	  GET
 Cboy0512	C-	2×	12/13	  GET
 Da Ne	A	2×	12/13	  GET
 Cleanblade	A+	2×	13/13	  GET
 Yarrum	A+	2×	13/13	  GET
 Tony Bolony	A+	2×	13/13	  GET
 Boffadeez	A+	2×	13/13	  GET
 Marcio Barrios	A+	2×	13/13	  GET
 Mystic Snail	A+	2×	13/13	  GET
 Chuck4489	A+	2×	13/13	  GET
 Loffel	A+	2×	13/13	  GET
 Jeanythekitty	A+	2×	13/13	  GET
 AnazenArt	A+	3×	13/13	  GET
 Blackie Panthy	A	2×	13/13	  GET
 Elyse B	A+	2×	13/13	  GET
 Jon Greene	A+	2×	13/13	  GET
 Oana Maria Vlad	A+	3×	13/13	  GET
 Ddixon68	A+	2×	13/13	  GET
 Gerettet	A+	2×	13/13	  GET
 Janetvonmurder	A+	2×	13/13	  GET
 Vanillabliss	A+	2×	13/13	  GET
 Jeff Helton	A+	2×	13/13	  GET
 Sid Maxwell	A+	3×	13/13	  GET
 Brumalisprae	A+	2×	13/13	  GET
 Child's Heart	A+	2×	13/13	  GET
 Sltheringirl92	A+	2×	13/13	  GET
 Michael Bergmaier	A+	2×	13/13	  GET
 Caleb Elder-Hall	A+	2×	13/13	  GET
 Onig Apaz	A+	2×	12/13	  GET
 Alison Wendy	A+	4×	13/13	  GET
 Ashley Brim	A+	2×	13/13	  GET
 Eric Liu	A+	2×	13/13	  GET
 Mawar Putri	C+	2×	13/13	  GET
 Ben Williams	A	2×	11/13	  GET
 Reallybored	A+	2×	13/13	  GET
 cecilia barbosa	A+	2×	13/13	  GET
 Glenn Blanza	A+	1×	13/13	  GET
 Eyliana	A+	1×	13/13	  GET
 Mark	B+	1×	6/13	  GET
 Keely Rivers	B+	1×	12/13	  GET
 Aza	A+	1×	13/13	  GET
 LittleMonster97	A-	1×	13/13	  GET
 Chris LeDoux	A+	1×	13/13	  GET
 Fion Fox	A+	1×	13/13	  GET
 Yvahn Sy	F+	1×	3/13	  GET
 Davidp	A+	1×	12/13	  GET
 Catherine	A+	1×	12/13	  GET
 Doowutchyalike	A+	1×	13/13	  GET
 David Hoogland	A+	1×	13/13	  GET
 nowheresafe	A+	1×	10/13	  GET
 Steven Edwards	A+	1×	10/13	  GET
 Sølvi Husby	A+	1×	13/13	  GET
 Jason Rawls	A+	1×	13/13	  GET
 Hane Renard	A+	1×	13/13	  GET
 Rosestar55	A+	1×	13/13	  GET
 Adam Tanouye	A+	1×	13/13	  GET
 Jessica Seargeant	A+	1×	13/13	  GET
 Heather Cournoyer	A+	1×	7/13	  GET
 Capt_Lion	A+	1×	13/13	  GET
 Abbie V.	A+	1×	12/13	  GET
 Cris Michelini	A+	1×	11/13	  GET
 gagy19	C+	1×	11/13	  GET
 Cece Donuts	A+	1×	12/13	  GET
 Ajna Onhumies	A-	1×	12/13	  GET
 Flahme	A+	1×	13/13	  GET
 Mariac	A	1×	12/13	  GET
 Brenda	A+	1×	11/13	  GET
 Layton	A+	1×	13/13	  GET
 Daniyel Mills	A+	1×	13/13	  GET
 Mihai Balan	A+	1×	13/13	  GET
 Shephered	A+	1×	13/13	  GET
 Patricia Sung	A+	1×	12/13	  GET
 Drew Leto	A+	1×	13/13	  GET
 Chaun Yamat	A+	1×	10/13	  GET
 Neonmobster_12060	C	1×	11/13	  GET
 Cory Ruda	A+	1×	13/13	  GET
 Brittany Heisler	A	1×	11/13	  GET
 Cecilia Oñederra	A+	1×	11/13	  GET
 Regina Lopez	A+	1×	11/13	  GET
 K2T C.	C+	1×	13/13	  GET
 Steve Gomez	A+	1×	12/13	  GET
 Rica Azmaria	A+	1×	12/13	  GET
 Alonso Medina	B	1×	11/13	  GET
 Julia Notkina	A	1×	13/13	  GET
 Dimitris Nikitas	A+	1×	13/13	  GET
 Randallpinkflyd	A+	1×	13/13	  GET
 Jazzy	A+	1×	12/13	  GET
 Zephryl	A+	1×	13/13	  GET
 Shea Donato	A+	1×	13/13	  GET
 Desdinova	A+	1×	13/13	  GET
 Gesyca	A+	1×	12/13	  GET
 Allen Tran	A+	1×	13/13	  GET
 Tiger Monkey	A+	1×	13/13	  GET
 Robin Bond	A+	1×	13/13	  GET
 QueenJellyfish	D+	1×	11/13	  GET
 Darkcvc	A+	1×	13/13	  GET
 Dinosaur Mermaid	A+	1×	11/13	  GET
 Beanbear24	A	1×	13/13	  GET
 Shade20xx	A+	1×	13/13	  GET
 Kenny Tan	A-	1×	13/13	  GET
 Starcatcher77	A+	1×	3/13	  GET
 Oliver Sparkes	A+	1×	13/13	  GET
 Nate Rapai	A+	1×	11/13	  GET
 Agraynel	A+	1×	13/13	  GET
 Shandee+Christopher Nis	A+	1×	13/13	  GET
 Wonderinglolita	A+	1×	13/13	  GET
 Verne Ahyong	A+	1×	13/13	  GET
 Chris	A+	1×	12/13	  GET
 Gogs	A+	1×	12/13	  GET
 Michelle	A+	1×	9/13	  GET
 Flanni Scarlet	A+	1×	13/13	  GET
 Tiffany Tolbert	A+	1×	10/13	  GET
 Mephisto	A+	1×	12/13	  GET
 Nav	A+	1×	13/13	  GET
 Adam Sheffer	A+	1×	13/13	  GET
 dedChar	A+	1×	12/13	  GET
 Krisztina Kurucsai	A+	1×	13/13	  GET
 Kelvin Tse	A+	1×	13/13	  GET
 Boon Chuan Lim	A+	1×	13/13	  GET
 Natasha Chay	A+	1×	12/13	  GET
 Filletfish	A+	1×	13/13	  GET
 David Chhuon	A+	1×	13/13	  GET
 Melanie Easterbrook	A	1×	13/13	  GET
 Jordan	A+	1×	13/13	  GET
 Megan wants the old NeonMob back	A+	1×	13/13	  GET
 Nico Cherrywood	A	1×	12/13	  GET
 Kashimma Danner	A+	1×	11/13	  GET
 Alex.din	A+	1×	11/13	  GET
 Karen Ramsey	A+	1×	13/13	  GET
 Michael H	A+	1×	13/13	  GET
 Farisu	A+	1×	13/13	  GET
 Jewlz Robertson	A+	1×	13/13	  GET
 Shareece Tatum	A+	1×	12/13	  GET
 Luciano Franceschi	A+	1×	13/13	  GET
 Deathtotheweird	A+	1×	12/13	  GET
 Hareion	A+	1×	9/13	  GET
 Scott Dyer	A+	1×	12/13	  GET
 Ayanhill25	A+	1×	13/13	  GET
 Tristan Wilke	A	1×	11/13	  GET
 Sydney._.huang	B+	1×	13/13	  GET
 Jkliew	C+	1×	13/13	  GET
 'Liung Hartono'	A+	1×	12/13	  GET
 Twiggleman	A	1×	13/13	  GET
 Ben Kalman	A+	1×	10/13	  GET
 Rajmund Nagy	A+	1×	13/13	  GET
 Daniela Paglia	A+	1×	13/13	  GET
 Kelsey Bury	B	1×	11/13	  GET
 Sarah McMullan	A+	1×	13/13	  GET
 LOL2125hulk What?	A+	1×	11/13	  GET
 Ivett Jimenez	B	1×	10/13	  GET
 Dragon Mist	A+	1×	13/13	  GET
 Rukiaskywalker	A	1×	9/13	  GET
 Dom Foord	A+	1×	10/13	  GET
 Meg	C+	1×	9/13	  GET
 Elizabeth Leong	A+	1×	13/13	  GET
 Magnaprawn	D+	1×	8/13	  GET
 Giulia Degortes Caivano	A+	1×	13/13	  GET
 Sana	A+	1×	13/13	  GET
 Eulenlied	A+	1×	13/13	  GET
 Ocular Rhombus	B+	1×	9/13	  GET
 Britty	A+	1×	12/13	  GET
 Skylar Rose	A+	1×	13/13	  GET
 Loki	D+	1×	10/13	  GET
 Dains	A+	1×	12/13	  GET
 Alicia Arsenault	A+	1×	12/13	  GET
 Rian Perez	A+	1×	13/13	  GET
 Cairan	A+	1×	13/13	  GET
 Mouseblast	A+	1×	13/13	  GET
 Ramon Cardoso	A+	1×	13/13	  GET
 Hedua Nyang	B	1×	12/13	  GET
 Dixon Vew Lim	A+	1×	13/13	  GET
 Sébastien D.	A+	1×	13/13	  GET
 Kaizla Wheaton	A+	1×	2/13	  GET
 Lisette Tolxdorf	A+	1×	12/13	  GET
 Lina H. Droste	A+	1×	13/13	  GET
 Mark Jimenez	A+	1×	12/13	  GET
 Marco Nájera	A+	1×	13/13	  GET
 Low Yi Ven	A	1×	13/13	  GET
 Yi Tang	B+	1×	12/13	  GET
 Randy Rodriguez	B	1×	12/13	  GET
 Kieran Gunn	A+	1×	13/13	  GET
 eva marie	A+	1×	12/13	  GET
 Shelby Night	A+	1×	12/13	  GET
 Cramer	A+	1×	13/13	  GET
 Pelvichan	A+	1×	12/13	  GET
 RuyGDA	A+	1×	13/13	  GET
 yamaJYT	A+	1×	13/13	  GET
 Craven Eudy	A+	1×	11/13	  GET
 Thureliz100	C	1×	3/13	  GET
 Mcsquiggins	A+	1×	13/13	  GET
 Alejandro Serrano	A+	1×	13/13	  GET
 Ryder	A	1×	12/13	  GET
 Scarlettsiren	A+	1×	13/13	  GET
 Jessica Carroll	A+	1×	10/13	  GET
 Ethel Aguilar Luis	A+	1×	12/13	  GET
 Kenny F	A+	1×	13/13	  GET
 Alecsandra Elena	A+	1×	12/13	  GET
 Chou Abd	A+	1×	13/13	  GET
 Insanekitty32	A+	1×	7/13	  GET
 Livefox	A	1×	12/13	  GET
 Kiran Khan	A+	1×	13/13	  GET
 Phelix	A	1×	13/13	  GET
 Jazen Chan	B-	1×	13/13	  GET
 Jedi_Brutus	A	1×	13/13	  GET
 Jeddediah	A+	1×	12/13	  GET
 dalampasigan08	A-	1×	10/13	  GET
 Barbara Morales	A+	1×	12/13	  GET
 Project	A+	1×	11/13	  GET
 Bekki Bedow	A+	1×	13/13	  GET
 Hasan.jawad1	A+	1×	12/13	  GET
 Nekobread	C+	1×	10/13	  GET
 Ryan Davis	A+	1×	13/13	  GET
 Iliana Petrova (Rabbit)	A+	1×	12/13	  GET
 Franco Hormazabal Labbe	B-	1×	13/13	  GET
 Nii	B+	1×	10/13	  GET
 Quatoes Wread	A+	1×	12/13	  GET
 Gil Reyes Mtz	A-	1×	11/13	  GET
 Betafish	A+	1×	11/13	  GET
 hulotte	A	1×	13/13	  GET
 Winson Goh	A+	1×	12/13	  GET
 Irishgirloriginal	A-	1×	13/13	  GET
 Vlad Ciule	A+	1×	13/13	  GET
 Steph Talerico	A+	1×	12/13	  GET
 Milena Romaniuk	A+	1×	13/13	  GET
 Tien Lam	A+	1×	12/13	  GET
 Zack Murphy	A+	1×	12/13	  GET
 Jean Sagot	B	1×	9/13	  GET
 Luke Gibson	A+	1×	13/13	  GET
 Great Ninja	A+	1×	13/13	  GET
 Quintin Hartman	A+	1×	12/13	  GET
 Niki	A+	1×	13/13	  GET
 Max Dusman	A+	1×	13/13	  GET
 Josiah DePaoli	A+	1×	13/13	  GET
 Candoh	B-	1×	13/13	  GET
 Neonmobsterfool	A+	1×	13/13	  GET
 Madalina Aldea	A+	1×	13/13	  GET
 Wesley Boone	A+	1×	13/13	  GET
 Crepuscular.	C-	1×	3/13	  GET
 Hey You're Cool	C+	1×	12/13	  GET
 D N	A+	1×	13/13	  GET
 Rakaputra Paputungan	A+	1×	10/13	  GET
 Jeannine Bolhouse	A+	1×	11/13	  GET
 Winson	B-	1×	12/13	  GET
 Diego Camara Lopes	A+	1×	13/13	  GET
 Maria Coker	A-	1×	13/13	  GET
 Andreea Danielescu	A+	1×	13/13	  GET
 CutterL	A	1×	7/13	  GET
 Marianna Piacesi	A+	1×	13/13	  GET
 Alf Alfa	A+	1×	12/13	  GET
 Nico Hart	A	1×	11/13	  GET
 Veronicafalls	A+	1×	12/13	  GET
 Souls Haven	A+	1×	13/13	  GET
 Reza Pahlevi	F+	1×	13/13	  GET
 Jared Hale	A+	1×	13/13	  GET
 Fryingpansam93	A+	1×	13/13	  GET
 Good Man	A+	1×	12/13	  GET
 Fabled3000	A+	1×	13/13	  GET
 yiyang gu	D	1×	12/13	  GET
 Eduardo Jimenez	A+	1×	13/13	  GET
 gaboleiro1235	A+	1×	12/13	  GET
 Ohanwei	A+	1×	10/13	  GET
 Christine	A+	1×	11/13	  GET
 Pkboo	A+	1×	11/13	  GET
 Zypiris	A+	1×	11/13	  GET
 Kevin Henke	A+	1×	13/13	  GET
 Chris Held	A+	1×	12/13	  GET
 Esmi	A+	1×	12/13	  GET
 Nick Barrett	A+	1×	13/13	  GET
 Popshox	A+	1×	13/13	  GET
 Zax G	A+	1×	13/13	  GET
 Speedygirl	B+	1×	11/13	  GET
 Vaelyx	A-	1×	13/13	  GET
 Alberto Álvarez	C+	1×	11/13	  GET
 Mack Caddy	A+	1×	13/13	  GET
 Intotheforests	A+	1×	13/13	  GET
 Kristin	A-	1×	9/13	  GET
 Luci Kins	A-	1×	12/13	  GET
 Richard Billings	C	1×	10/13	  GET
 Sandra A.	A+	1×	12/13	  GET
 Leon Yonzon	A+	1×	10/13	  GET
 Antonio Ventura III	A-	1×	10/13	  GET
 SnowBear	A+	1×	13/13	  GET
 Gabriela Scott	A+	1×	13/13	  GET
 Fiona Scott	A+	1×	12/13	  GET
 Firstiand Chaniago	A+	1×	12/13	  GET
 Matthew Toyama	A+	1×	13/13	  GET
 Truewolf	F+	1×	7/13	  GET
 Darth Doom	A+	1×	12/13	  GET
 Ribena	A+	1×	13/13	  GET
 Ryan McCarthy	A+	1×	13/13	  GET
 snoot	A+	1×	12/13	  GET
 Tami CM	A	1×	13/13	  GET
 Karen Mack	A+	1×	13/13	  GET
 Cryptec	A	1×	13/13	  GET
 Greenfaery	A+	1×	12/13	  GET
 Lisa Lyle	A+	1×	13/13	  GET
 Kayla	A	1×	12/13	  GET
 Brianwolf	A+	1×	12/13	  GET
 Rosemary Foley	A+	1×	13/13	  GET
 Nick Sampson	B-	1×	12/13	  GET
 Reia Metherle	B+	1×	11/13	  GET
 Shayne De Dios	A	1×	13/13	  GET
 Ana Flávia Coetti	B-	1×	12/13	  GET
 Katrina Keller	A	1×	12/13	  GET
 Abby Fox	B+	1×	11/13	  GET
 PokemonToons	B-	1×	8/13	  GET
 Archcaster23	A-	1×	13/13	  GET
 Dawn O'Brien	A+	1×	12/13	  GET
 Jessica McCollin	A+	1×	12/13	  GET
 Misterdusk	A+	1×	13/13	  GET
 Bee	B	1×	12/13	  GET
 Eriss	A+	1×	13/13	  GET
 Ilse.aime	A	1×	12/13	  GET
 Bi-Rabittoh	C	1×	12/13	  GET
 James O'Leary	A+	1×	10/13	  GET
 Corramel	A+	1×	13/13	  GET
 batiskafo	A+	1×	12/13	  GET
 Katie Redmon	A+	1×	13/13	  GET
 Katie	A+	1×	11/13	  GET
 Polly	A+	1×	11/13	  GET
 Annthelast	A+	1×	13/13	  GET
 pong0814	A+	1×	13/13	  GET
 otakuwithnolife	A+	1×	12/13	  GET
 Mrkr Trn	A+	1×	12/13	  GET
 Little Elfche	A+	1×	13/13	  GET
 Aline Schulz Realino Lima	B+	1×	12/13	  GET
 Shuunka	A+	1×	12/13	  GET
 Trisieratops	A+	1×	11/13	  GET
 Matthew	A+	1×	10/13	  GET
 Zxion02	A	1×	11/13	  GET
 Redcarrobbie	A+	1×	11/13	  GET
 Shannon Dehne	A+	1×	13/13	  GET
 Bluehawaii	A+	1×	13/13	  GET
 Mila Theodin	A+	1×	12/13	  GET
 Tjdisco	A+	1×	13/13	  GET
 Katrina Rowley	A+	1×	11/13	  GET
 hching	B+	1×	13/13	  GET
 Planet.xiv	A+	1×	13/13	  GET
 Kevin_zuners	A+	1×	13/13	  GET
 Matheus oliveira	C+	1×	12/13	  GET
 Lyck_1021	C	1×	13/13	  GET
 Emma Allen	B+	1×	10/13	  GET
 Raissa Andrade	B+	1×	13/13	  GET
 Mandi Arbizu	C+	1×	10/13	  GET
 Kastiel	A+	1×	4/13	  GET
 Chie	A	1×	13/13	  GET
 Darth Dali	A+	1×	2/13	  GET
 Sean Neprud	A+	1×	13/13	  GET
 Daybid Tantsi	B+	1×	6/13	  GET
 Lillian F.	A+	1×	10/13	  GET
 Karla House Mcclain	A	1×	13/13	  GET
 NordicTurtle	A+	1×	13/13	  GET
 Davy Shirley	A+	1×	13/13	  GET
 Carolina Marquez:D	B-	1×	9/13	  GET
 MaKayla Hegger	A+	1×	8/13	  GET
 Neonmobster_11625	A+	1×	12/13	  GET
 Asces05	A+	1×	13/13	  GET
 Sergio Ragno	B	1×	5/13	  GET
 shiny beast of thought	A+	1×	12/13	  GET
 Sharoontheraccoon	A+	1×	13/13	  GET
 Samantha Johnson	C-	1×	10/13	  GET
 Wasabee	A+	1×	13/13	  GET
 Gillomee	C	1×	10/13	  GET
 Artemis Cho	A	1×	11/13	  GET
 Ed Stych	A+	1×	11/13	  GET
 Joshua Blackstone	A+	1×	13/13	  GET
 B_h_c	A+	1×	12/13	  GET
 Leak	A+	1×	13/13	  GET
 Bryan Paterson	A+	1×	13/13	  GET
 Rachel McCullough	A+	1×	12/13	  GET
 Silverblazblue	A+	1×	13/13	  GET
 Sheridan Park	A+	1×	13/13	  GET
 Dramaqueen09	A+	1×	12/13	  GET
 J B	A+	1×	13/13	  GET
 bs angel	A+	1×	13/13	  GET
 Gdiii	B+	1×	11/13	  GET
 Christopher Sampson	A+	1×	13/13	  GET
 Alex	A+	1×	13/13	  GET
 Comitem	A+	1×	10/13	  GET
 Laila Pinto Alves	A+	1×	13/13	  GET
 Dan Themadhatter	A+	1×	12/13	  GET
 Neonmobster_9982	A	1×	12/13	  GET
 Shawna Aponte	A+	1×	13/13	  GET
 Dmontoyaster	A+	1×	9/13	  GET
 cdn_chickee	A-	1×	13/13	  GET
 Paola Casillas	A+	1×	13/13	  GET
 Ahreen Kaye Valenzuela	A+	1×	13/13	  GET
 Haku _	A+	1×	13/13	  GET
 JB1127	A+	1×	13/13	  GET
 Joseph Czarney	B+	1×	2/13	  GET
 Simforianus Agustian	A+	1×	12/13	  GET
 Lauren Sugrue	A+	1×	11/13	  GET
 Butternutloaf	A+	1×	12/13	  GET
 Maluavatar95	B-	1×	11/13	  GET
 Bubbie	B+	1×	12/13	  GET
 Lyra	A+	1×	12/13	  GET
 Lizette Pretorius	B+	1×	10/13	  GET
 Ray Ross	A+	1×	11/13	  GET
 Zanrin	A+	1×	10/13	  GET
 Tenxia PROTESTS NEONMOB CHANGES!!!!	A+	1×	13/13	  GET
 Aria DuFreak	C+	1×	12/13	  GET
 Larry Wheeler	C+	1×	13/13	  GET
 N7 Vega	A	1×	11/13	  GET
 Lidia Martin	A+	1×	11/13	  GET
 Lea	A+	1×	13/13	  GET
 Intrepid	A+	1×	12/13	  GET
 Arianne Montecillo	B	1×	11/13	  GET
 Whcdemja	B+	1×	12/13	  GET
 Richard Miller	A+	1×	12/13	  GET
 Animeartist62	A+	1×	12/13	  GET
 Florian Fekkes	A+	1×	13/13	  GET
 Cheeks	A+	1×	9/13	  GET
 Mel L	A+	1×	13/13	  GET
 Ana	A+	1×	13/13	  GET
 Emily Bacher	A+	1×	8/13	  GET
 Samantha Long	A+	1×	9/13	  GET
 Jleigh5496	A+	1×	12/13	  GET
 Cory W.	C+	1×	13/13	  GET
 Neonmobster_15766	B+	1×	10/13	  GET
 Hamish Larkman	A+	1×	13/13	  GET
 Jekajohn	A+	1×	13/13	  GET
 PopmonCat	B	1×	4/13	  GET
 Ardy Bondoc	A+	1×	13/13	  GET
 Lizzie~	B-	1×	13/13	  GET
 Lena	A+	1×	13/13	  GET
 Jportsteen	A-	1×	8/13	  GET
 Giulia Cavallari	B+	1×	13/13	  GET
 Pablo Ramirez	A+	1×	9/13	  GET
 Ryan Joshi	B+	1×	12/13	  GET
 Riél Shadowveil	B+	1×	12/13	  GET
 Teddy Pendergast	A+	1×	13/13	  GET
 Tanya Hales	A+	1×	13/13	  GET
 Red	A+	1×	12/13	  GET
 Sancho Pants	A+	1×	10/13	  GET
 Winter Rose	A+	1×	13/13	  GET
 Lledoux99	B+	1×	12/13	  GET
 Erik Derr	A+	1×	13/13	  GET
 Gabriela Lopes	A+	1×	12/13	  GET
 Nytunia	A+	1×	12/13	  GET
 Yoshii	B+	1×	11/13	  GET
 Joe Worthington	B	1×	11/13	  GET
 Waldo Cervantes	A+	1×	13/13	  GET
 spooky hami	D	1×	9/13	  GET
 Shelly Martinez	A+	1×	10/13	  GET
 Michael Phillips	A+	1×	10/13	  GET
 Hobby Cards	A+	1×	13/13	  GET
 Adorahaa	A+	1×	10/13	  GET
 Gavin	A+	1×	13/13	  GET
 Jesse Goll	A+	1×	13/13	  GET
 Bazameee	B	1×	10/13	  GET
 Arlain	A+	1×	13/13	  GET
 Coolstace Offical_stace	A+	1×	10/13	  GET
 Icecheetah	A+	1×	13/13	  GET
 Ipocalypse	A+	1×	13/13	  GET
 SEHUN LUV	A+	1×	6/13	  GET
 Rag Doll's Revenge	A+	1×	12/13	  GET
 Sebastian Williams	F	1×	9/13	  GET
 Breeze Canyon	B	1×	10/13	  GET
 Flux1991	C+	1×	11/13	  GET
 Azuresimkin	A+	1×	13/13	  GET
 Raikua	A+	1×	13/13	  GET
 Nyang Hesatu	C+	1×	12/13	  GET
 Kristen Garrett	A+	1×	12/13	  GET
 Keisiak	A	1×	11/13	  GET
 KeithB	A+	1×	12/13	  GET
 David Poulton	A+	1×	13/13	  GET
 Dlr76	A+	1×	12/13	  GET
 KyloRenKnight	A+	1×	13/13	  GET
 Scarecrowluk	B+	1×	10/13	  GET
 Alexis Young	A+	1×	11/13	  GET
 Michel Ehrlich	A+	1×	13/13	  GET
